[38;2;246;170;17mUsage:[0m[38;2;248;248;242m emacs [OPTION-OR-FILENAME]...[0m

[38;2;248;248;242mRun Emacs, the extensible, customizable, self-documenting real-time[0m
[38;2;248;248;242mdisplay editor.  The recommended way to start Emacs for normal editing[0m
[38;2;248;248;242mis with no options at all.[0m

[38;2;248;248;242mRun M-x info RET m emacs RET m emacs invocation RET inside Emacs to[0m
[38;2;248;248;242mread the main documentation for these command-line arguments.[0m

[38;2;246;170;17mInitialization options:[0m

[38;2;166;226;46m--batch[0m[38;2;248;248;242m                     do not do interactive display; implies -q[0m
[38;2;166;226;46m--chdir[0m[38;2;248;248;242m [0m[38;2;249;38;114mDIR[0m[38;2;248;248;242m                 change to directory DIR[0m
[38;2;166;226;46m--daemon[0m[38;2;248;248;242m, [0m[38;2;166;226;46m--bg-daemon[0m[38;2;248;248;242m[=[0m[38;2;249;38;114mNAME[0m[38;2;248;248;242m] start a (named) server in the background[0m
[38;2;166;226;46m--fg-daemon[0m[38;2;248;248;242m[=[0m[38;2;249;38;114mNAME[0m[38;2;248;248;242m]          start a (named) server in the foreground[0m
[38;2;166;226;46m--debug-init[0m[38;2;248;248;242m                enable Emacs Lisp debugger for init file[0m
[38;2;166;226;46m--display[0m[38;2;248;248;242m, [0m[38;2;166;226;46m-d[0m[38;2;248;248;242m [0m[38;2;249;38;114mDISPLAY[0m[38;2;248;248;242m       use X server DISPLAY[0m
[38;2;166;226;46m--no-build-details[0m[38;2;248;248;242m          do not add build details such as time stamps[0m
[38;2;166;226;46m--no-desktop[0m[38;2;248;248;242m                do not load a saved desktop[0m
[38;2;166;226;46m--no-init-file[0m[38;2;248;248;242m, [0m[38;2;166;226;46m-q[0m[38;2;248;248;242m          load neither ~/.emacs nor default.el[0m
[38;2;166;226;46m--no-loadup[0m[38;2;248;248;242m, [0m[38;2;166;226;46m-nl[0m[38;2;248;248;242m            do not load loadup.el into bare Emacs[0m
[38;2;166;226;46m--no-site-file[0m[38;2;248;248;242m              do not load site-start.el[0m
[38;2;166;226;46m--no-x-resources[0m[38;2;248;248;242m            do not load X resources[0m
[38;2;166;226;46m--no-site-lisp[0m[38;2;248;248;242m, [0m[38;2;166;226;46m-nsl[0m[38;2;248;248;242m        do not add site-lisp directories to load-path[0m
[38;2;166;226;46m--no-splash[0m[38;2;248;248;242m                 do not display a splash screen on startup[0m
[38;2;166;226;46m--no-window-system[0m[38;2;248;248;242m, [0m[38;2;166;226;46m-nw[0m[38;2;248;248;242m     do not communicate with X, ignoring $DISPLAY[0m
[38;2;166;226;46m--quick[0m[38;2;248;248;242m, [0m[38;2;166;226;46m-Q[0m[38;2;248;248;242m                 equivalent to:[0m
[38;2;248;248;242m                              -q --no-site-file --no-site-lisp --no-splash[0m
[38;2;248;248;242m                              --no-x-resources[0m
[38;2;166;226;46m--script[0m[38;2;248;248;242m [0m[38;2;249;38;114mFILE[0m[38;2;248;248;242m               run FILE as an Emacs Lisp script[0m
[38;2;166;226;46m--terminal[0m[38;2;248;248;242m, [0m[38;2;166;226;46m-t[0m[38;2;248;248;242m [0m[38;2;249;38;114mDEVICE[0m[38;2;248;248;242m       use DEVICE for terminal I/O[0m
[38;2;166;226;46m--user[0m[38;2;248;248;242m, [0m[38;2;166;226;46m-u[0m[38;2;248;248;242m [0m[38;2;249;38;114mUSER[0m[38;2;248;248;242m             load ~USER/.emacs instead of your own[0m

[38;2;246;170;17mAction options:[0m

[38;2;249;38;114mFILE[0m[38;2;248;248;242m                    visit FILE[0m
[38;2;166;226;46m+[0m[38;2;249;38;114mLINE[0m[38;2;248;248;242m                   go to line LINE in next FILE[0m
[38;2;166;226;46m+[0m[38;2;249;38;114mLINE:COLUMN[0m[38;2;248;248;242m            go to line LINE, column COLUMN, in next FILE[0m
[38;2;166;226;46m--directory[0m[38;2;248;248;242m, [0m[38;2;166;226;46m-L[0m[38;2;248;248;242m [0m[38;2;249;38;114mDIR[0m[38;2;248;248;242m     prepend DIR to load-path (with :DIR, append DIR)[0m
[38;2;166;226;46m--eval[0m[38;2;248;248;242m [0m[38;2;249;38;114mEXPR[0m[38;2;248;248;242m             evaluate Emacs Lisp expression EXPR[0m
[38;2;166;226;46m--execute[0m[38;2;248;248;242m [0m[38;2;249;38;114mEXPR[0m[38;2;248;248;242m          evaluate Emacs Lisp expression EXPR[0m
[38;2;166;226;46m--file[0m[38;2;248;248;242m [0m[38;2;249;38;114mFILE[0m[38;2;248;248;242m             visit FILE[0m
[38;2;166;226;46m--find-file[0m[38;2;248;248;242m [0m[38;2;249;38;114mFILE[0m[38;2;248;248;242m        visit FILE[0m
[38;2;166;226;46m--funcall[0m[38;2;248;248;242m, [0m[38;2;166;226;46m-f[0m[38;2;248;248;242m [0m[38;2;249;38;114mFUNC[0m[38;2;248;248;242m      call Emacs Lisp function FUNC with no arguments[0m
[38;2;166;226;46m--insert[0m[38;2;248;248;242m [0m[38;2;249;38;114mFILE[0m[38;2;248;248;242m           insert contents of FILE into current buffer[0m
[38;2;166;226;46m--kill[0m[38;2;248;248;242m                  exit without asking for confirmation[0m
[38;2;166;226;46m--load[0m[38;2;248;248;242m, [0m[38;2;166;226;46m-l[0m[38;2;248;248;242m [0m[38;2;249;38;114mFILE[0m[38;2;248;248;242m         load Emacs Lisp FILE using the load function[0m
[38;2;166;226;46m--visit[0m[38;2;248;248;242m [0m[38;2;249;38;114mFILE[0m[38;2;248;248;242m            visit FILE[0m

[38;2;246;170;17mDisplay options:[0m

[38;2;166;226;46m--background-color[0m[38;2;248;248;242m, [0m[38;2;166;226;46m-bg[0m[38;2;248;248;242m [0m[38;2;249;38;114mCOLOR[0m[38;2;248;248;242m   window background color[0m
[38;2;166;226;46m--basic-display[0m[38;2;248;248;242m, [0m[38;2;166;226;46m-D[0m[38;2;248;248;242m             disable many display features;[0m
[38;2;248;248;242m                                  used for debugging Emacs[0m
[38;2;166;226;46m--border-color[0m[38;2;248;248;242m, [0m[38;2;166;226;46m-bd[0m[38;2;248;248;242m [0m[38;2;249;38;114mCOLOR[0m[38;2;248;248;242m       main border color[0m
[38;2;166;226;46m--border-width[0m[38;2;248;248;242m, [0m[38;2;166;226;46m-bw[0m[38;2;248;248;242m [0m[38;2;249;38;114mWIDTH[0m[38;2;248;248;242m       width of main border[0m
[38;2;166;226;46m--color[0m[38;2;248;248;242m, [0m[38;2;166;226;46m--color[0m[38;2;248;248;242m=[0m[38;2;249;38;114mMODE[0m[38;2;248;248;242m           override color mode for character terminals;[0m
[38;2;248;248;242m                                  MODE defaults to `auto', and[0m
[38;2;248;248;242m                                  can also be `never', `always',[0m
[38;2;248;248;242m                                  or a mode name like `ansi8'[0m
[38;2;166;226;46m--cursor-color[0m[38;2;248;248;242m, [0m[38;2;166;226;46m-cr[0m[38;2;248;248;242m [0m[38;2;249;38;114mCOLOR[0m[38;2;248;248;242m       color of the Emacs cursor indicating point[0m
[38;2;166;226;46m--font[0m[38;2;248;248;242m, [0m[38;2;166;226;46m-fn[0m[38;2;248;248;242m [0m[38;2;249;38;114mFONT[0m[38;2;248;248;242m                default font; must be fixed-width[0m
[38;2;166;226;46m--foreground-color[0m[38;2;248;248;242m, [0m[38;2;166;226;46m-fg[0m[38;2;248;248;242m [0m[38;2;249;38;114mCOLOR[0m[38;2;248;248;242m   window foreground color[0m
[38;2;166;226;46m--fullheight[0m[38;2;248;248;242m, [0m[38;2;166;226;46m-fh[0m[38;2;248;248;242m               make the first frame high as the screen[0m
[38;2;166;226;46m--fullscreen[0m[38;2;248;248;242m, [0m[38;2;166;226;46m-fs[0m[38;2;248;248;242m               make the first frame fullscreen[0m
[38;2;166;226;46m--fullwidth[0m[38;2;248;248;242m, [0m[38;2;166;226;46m-fw[0m[38;2;248;248;242m                make the first frame wide as the screen[0m
[38;2;166;226;46m--maximized[0m[38;2;248;248;242m, [0m[38;2;166;226;46m-mm[0m[38;2;248;248;242m                make the first frame maximized[0m
[38;2;166;226;46m--geometry[0m[38;2;248;248;242m, [0m[38;2;166;226;46m-g[0m[38;2;248;248;242m [0m[38;2;249;38;114mGEOMETRY[0m[38;2;248;248;242m         window geometry[0m
[38;2;166;226;46m--no-bitmap-icon[0m[38;2;248;248;242m, [0m[38;2;166;226;46m-nbi[0m[38;2;248;248;242m          do not use picture of gnu for Emacs icon[0m
[38;2;166;226;46m--iconic[0m[38;2;248;248;242m                        start Emacs in iconified state[0m
[38;2;166;226;46m--internal-border[0m[38;2;248;248;242m, [0m[38;2;166;226;46m-ib[0m[38;2;248;248;242m [0m[38;2;249;38;114mWIDTH[0m[38;2;248;248;242m    width between text and main border[0m
[38;2;166;226;46m--line-spacing[0m[38;2;248;248;242m, [0m[38;2;166;226;46m-lsp[0m[38;2;248;248;242m [0m[38;2;249;38;114mPIXELS[0m[38;2;248;248;242m     additional space to put between lines[0m
[38;2;166;226;46m--mouse-color[0m[38;2;248;248;242m, [0m[38;2;166;226;46m-ms[0m[38;2;248;248;242m [0m[38;2;249;38;114mCOLOR[0m[38;2;248;248;242m        mouse cursor color in Emacs window[0m
[38;2;166;226;46m--name[0m[38;2;248;248;242m [0m[38;2;249;38;114mNAME[0m[38;2;248;248;242m                     title for initial Emacs frame[0m
[38;2;166;226;46m--no-blinking-cursor[0m[38;2;248;248;242m, [0m[38;2;166;226;46m-nbc[0m[38;2;248;248;242m      disable blinking cursor[0m
[38;2;166;226;46m--reverse-video[0m[38;2;248;248;242m, [0m[38;2;166;226;46m-r[0m[38;2;248;248;242m, [0m[38;2;166;226;46m-rv[0m[38;2;248;248;242m        switch foreground and background[0m
[38;2;166;226;46m--title[0m[38;2;248;248;242m, [0m[38;2;166;226;46m-T[0m[38;2;248;248;242m [0m[38;2;249;38;114mTITLE[0m[38;2;248;248;242m               title for initial Emacs frame[0m
[38;2;166;226;46m--vertical-scroll-bars[0m[38;2;248;248;242m, [0m[38;2;166;226;46m-vb[0m[38;2;248;248;242m     enable vertical scroll bars[0m
[38;2;166;226;46m--xrm[0m[38;2;248;248;242m [0m[38;2;249;38;114mXRESOURCES[0m[38;2;248;248;242m                set additional X resources[0m
[38;2;166;226;46m--parent-id[0m[38;2;248;248;242m [0m[38;2;249;38;114mXID[0m[38;2;248;248;242m                 set parent window[0m
[38;2;166;226;46m--help[0m[38;2;248;248;242m                          display this help and exit[0m
[38;2;166;226;46m--version[0m[38;2;248;248;242m                       output version information and exit[0m

[38;2;248;248;242mYou can generally also specify long option names with a single -; for[0m
[38;2;248;248;242mexample, -batch as well as --batch.  You can use any unambiguous[0m
[38;2;248;248;242mabbreviation for a --option.[0m

[38;2;248;248;242mVarious environment variables and window system resources also affect[0m
[38;2;248;248;242mthe operation of Emacs.  See the main documentation.[0m

[38;2;248;248;242mReport bugs to bug-gnu-emacs@gnu.org.  First, please see the Bugs[0m
[38;2;248;248;242msection of the Emacs manual or the file BUGS.[0m
