[38;2;246;170;17mUsage:[0m[38;2;248;248;242m gcc [options] file...[0m
[38;2;246;170;17mOptions:[0m
[38;2;248;248;242m  [0m[38;2;166;226;46m-pass-exit-codes[0m[38;2;248;248;242m         Exit with highest error code from a phase.[0m
[38;2;248;248;242m  [0m[38;2;166;226;46m--help[0m[38;2;248;248;242m                   Display this information.[0m
[38;2;248;248;242m  [0m[38;2;166;226;46m--target-help[0m[38;2;248;248;242m            Display target specific command line options.[0m
[38;2;248;248;242m  [0m[38;2;166;226;46m--help[0m[38;2;248;248;242m={[0m[38;2;249;38;114mcommon[0m[38;2;248;248;242m|[0m[38;2;249;38;114moptimizers[0m[38;2;248;248;242m|[0m[38;2;249;38;114mparams[0m[38;2;248;248;242m|[0m[38;2;249;38;114mtarget[0m[38;2;248;248;242m|[0m[38;2;249;38;114mwarnings[0m[38;2;248;248;242m|[0m[38;2;249;38;114m[^]{joined[0m[38;2;248;248;242m|[0m[38;2;249;38;114mseparate[0m[38;2;248;248;242m|[0m[38;2;249;38;114mundocumented[0m[38;2;248;248;242m}}[,...].[0m
[38;2;248;248;242m                           Display specific types of command line options.[0m
[38;2;248;248;242m  (Use '-v --help' to display command line options of sub-processes).[0m
[38;2;248;248;242m  [0m[38;2;166;226;46m--version[0m[38;2;248;248;242m                Display compiler version information.[0m
[38;2;248;248;242m  [0m[38;2;166;226;46m-dumpspecs[0m[38;2;248;248;242m               Display all of the built in spec strings.[0m
[38;2;248;248;242m  [0m[38;2;166;226;46m-dumpversion[0m[38;2;248;248;242m             Display the version of the compiler.[0m
[38;2;248;248;242m  [0m[38;2;166;226;46m-dumpmachine[0m[38;2;248;248;242m             Display the compiler's target processor.[0m
[38;2;248;248;242m  [0m[38;2;166;226;46m-print-search-dirs[0m[38;2;248;248;242m       Display the directories in the compiler's search path.[0m
[38;2;248;248;242m  [0m[38;2;166;226;46m-print-libgcc-file-name[0m[38;2;248;248;242m  Display the name of the compiler's companion library.[0m
[38;2;248;248;242m  [0m[38;2;166;226;46m-print-file-name[0m[38;2;248;248;242m=[0m[38;2;249;38;114m<lib>[0m[38;2;248;248;242m   Display the full path to library <lib>.[0m
[38;2;248;248;242m  [0m[38;2;166;226;46m-print-prog-name[0m[38;2;248;248;242m=[0m[38;2;249;38;114m<prog>[0m[38;2;248;248;242m  Display the full path to compiler component <prog>.[0m
[38;2;248;248;242m  [0m[38;2;166;226;46m-print-multiarch[0m[38;2;248;248;242m         Display the target's normalized GNU triplet, used as[0m
[38;2;248;248;242m                           a component in the library path.[0m
[38;2;248;248;242m  [0m[38;2;166;226;46m-print-multi-directory[0m[38;2;248;248;242m   Display the root directory for versions of libgcc.[0m
[38;2;248;248;242m  [0m[38;2;166;226;46m-print-multi-lib[0m[38;2;248;248;242m         Display the mapping between command line options and[0m
[38;2;248;248;242m                           multiple library search directories.[0m
[38;2;248;248;242m  [0m[38;2;166;226;46m-print-multi-os-directory[0m[38;2;248;248;242m Display the relative path to OS libraries.[0m
[38;2;248;248;242m  [0m[38;2;166;226;46m-print-sysroot[0m[38;2;248;248;242m           Display the target libraries directory.[0m
[38;2;248;248;242m  [0m[38;2;166;226;46m-print-sysroot-headers-suffix[0m[38;2;248;248;242m Display the sysroot suffix used to find headers.[0m
[38;2;248;248;242m  [0m[38;2;166;226;46m-Wa[0m[38;2;248;248;242m,[0m[38;2;249;38;114m<options>[0m[38;2;248;248;242m            Pass comma-separated <options> on to the assembler.[0m
[38;2;248;248;242m  [0m[38;2;166;226;46m-Wp[0m[38;2;248;248;242m,[0m[38;2;249;38;114m<options>[0m[38;2;248;248;242m            Pass comma-separated <options> on to the preprocessor.[0m
[38;2;248;248;242m  [0m[38;2;166;226;46m-Wl[0m[38;2;248;248;242m,[0m[38;2;249;38;114m<options>[0m[38;2;248;248;242m            Pass comma-separated <options> on to the linker.[0m
[38;2;248;248;242m  [0m[38;2;166;226;46m-Xassembler[0m[38;2;248;248;242m [0m[38;2;249;38;114m<arg>[0m[38;2;248;248;242m        Pass <arg> on to the assembler.[0m
[38;2;248;248;242m  [0m[38;2;166;226;46m-Xpreprocessor[0m[38;2;248;248;242m [0m[38;2;249;38;114m<arg>[0m[38;2;248;248;242m     Pass <arg> on to the preprocessor.[0m
[38;2;248;248;242m  [0m[38;2;166;226;46m-Xlinker[0m[38;2;248;248;242m [0m[38;2;249;38;114m<arg>[0m[38;2;248;248;242m           Pass <arg> on to the linker.[0m
[38;2;248;248;242m  [0m[38;2;166;226;46m-save-temps[0m[38;2;248;248;242m              Do not delete intermediate files.[0m
[38;2;248;248;242m  [0m[38;2;166;226;46m-save-temps[0m[38;2;248;248;242m=[0m[38;2;249;38;114m<arg>[0m[38;2;248;248;242m        Do not delete intermediate files.[0m
[38;2;248;248;242m  [0m[38;2;166;226;46m-no-canonical-prefixes[0m[38;2;248;248;242m   Do not canonicalize paths when building relative[0m
[38;2;248;248;242m                           prefixes to other gcc components.[0m
[38;2;248;248;242m  [0m[38;2;166;226;46m-pipe[0m[38;2;248;248;242m                    Use pipes rather than intermediate files.[0m
[38;2;248;248;242m  [0m[38;2;166;226;46m-time[0m[38;2;248;248;242m                    Time the execution of each subprocess.[0m
[38;2;248;248;242m  [0m[38;2;166;226;46m-specs[0m[38;2;248;248;242m=[0m[38;2;249;38;114m<file>[0m[38;2;248;248;242m            Override built-in specs with the contents of <file>.[0m
[38;2;248;248;242m  [0m[38;2;166;226;46m-std[0m[38;2;248;248;242m=[0m[38;2;249;38;114m<standard>[0m[38;2;248;248;242m          Assume that the input sources are for <standard>.[0m
[38;2;248;248;242m  [0m[38;2;166;226;46m--sysroot[0m[38;2;248;248;242m=[0m[38;2;249;38;114m<directory>[0m[38;2;248;248;242m    Use <directory> as the root directory for headers[0m
[38;2;248;248;242m                           and libraries.[0m
[38;2;248;248;242m  [0m[38;2;166;226;46m-B[0m[38;2;248;248;242m [0m[38;2;249;38;114m<directory>[0m[38;2;248;248;242m           Add <directory> to the compiler's search paths.[0m
[38;2;248;248;242m  [0m[38;2;166;226;46m-v[0m[38;2;248;248;242m                       Display the programs invoked by the compiler.[0m
[38;2;248;248;242m  [0m[38;2;166;226;46m-###[0m[38;2;248;248;242m                     Like -v but options quoted and commands not executed.[0m
[38;2;248;248;242m  [0m[38;2;166;226;46m-E[0m[38;2;248;248;242m                       Preprocess only; do not compile, assemble or link.[0m
[38;2;248;248;242m  [0m[38;2;166;226;46m-S[0m[38;2;248;248;242m                       Compile only; do not assemble or link.[0m
[38;2;248;248;242m  [0m[38;2;166;226;46m-c[0m[38;2;248;248;242m                       Compile and assemble, but do not link.[0m
[38;2;248;248;242m  [0m[38;2;166;226;46m-o[0m[38;2;248;248;242m [0m[38;2;249;38;114m<file>[0m[38;2;248;248;242m                Place the output into <file>.[0m
[38;2;248;248;242m  [0m[38;2;166;226;46m-pie[0m[38;2;248;248;242m                     Create a dynamically linked position independent[0m
[38;2;248;248;242m                           executable.[0m
[38;2;248;248;242m  [0m[38;2;166;226;46m-shared[0m[38;2;248;248;242m                  Create a shared library.[0m
[38;2;248;248;242m  [0m[38;2;166;226;46m-x[0m[38;2;248;248;242m [0m[38;2;249;38;114m<language>[0m[38;2;248;248;242m            Specify the language of the following input files.[0m
[38;2;248;248;242m                           Permissible languages include: c c++ assembler none[0m
[38;2;248;248;242m                           'none' means revert to the default behavior of[0m
[38;2;248;248;242m                           guessing the language based on the file's extension.[0m

[38;2;248;248;242mOptions starting with -g, -f, -m, -O, -W, or --param are automatically[0m
[38;2;248;248;242m passed on to the various sub-processes invoked by gcc.  In order to pass[0m
[38;2;248;248;242m other options on to these processes the -W<letter> options must be used.[0m

[38;2;248;248;242mFor bug reporting instructions, please see:[0m
[38;2;248;248;242m<file:///usr/share/doc/gcc-9/README.Bugs>.[0m
