[38;2;246;170;17mUsage:[0m[38;2;248;248;242m zsh [<options>] [<argument> ...][0m

[38;2;246;170;17mSpecial options:[0m
[38;2;248;248;242m  [0m[38;2;166;226;46m--help[0m[38;2;248;248;242m     show this message, then exit[0m
[38;2;248;248;242m  [0m[38;2;166;226;46m--version[0m[38;2;248;248;242m  show zsh version number, then exit[0m
[38;2;248;248;242m  [0m[38;2;166;226;46m-b[0m[38;2;248;248;242m         end option processing, like --[0m
[38;2;248;248;242m  [0m[38;2;166;226;46m-c[0m[38;2;248;248;242m         take first argument as a command to execute[0m
[38;2;248;248;242m  [0m[38;2;166;226;46m-o[0m[38;2;248;248;242m [0m[38;2;249;38;114mOPTION[0m[38;2;248;248;242m  set an option by name (see below)[0m

[38;2;248;248;242mNormal options are named.  An option may be turned on by[0m
[38;2;248;248;242m`-o OPTION', `--OPTION', `+o no_OPTION' or `+-no-OPTION'.  An[0m
[38;2;248;248;242moption may be turned off by `-o no_OPTION', `--no-OPTION',[0m
[38;2;248;248;242m`+o OPTION' or `+-OPTION'.  Options are listed below only in[0m
[38;2;248;248;242m`--OPTION' or `--no-OPTION' form.[0m

[38;2;246;170;17mNamed options:[0m
[38;2;248;248;242m  [0m[38;2;166;226;46m--aliases[0m
[38;2;248;248;242m  [0m[38;2;166;226;46m--aliasfuncdef[0m
[38;2;248;248;242m  [0m[38;2;166;226;46m--allexport[0m
[38;2;248;248;242m  [0m[38;2;166;226;46m--alwayslastprompt[0m
[38;2;248;248;242m  [0m[38;2;166;226;46m--alwaystoend[0m
[38;2;248;248;242m  [0m[38;2;166;226;46m--appendcreate[0m
[38;2;248;248;242m  [0m[38;2;166;226;46m--appendhistory[0m
[38;2;248;248;242m  [0m[38;2;166;226;46m--autocd[0m
[38;2;248;248;242m  [0m[38;2;166;226;46m--autocontinue[0m
[38;2;248;248;242m  [0m[38;2;166;226;46m--autolist[0m
[38;2;248;248;242m  [0m[38;2;166;226;46m--automenu[0m
[38;2;248;248;242m  [0m[38;2;166;226;46m--autonamedirs[0m
[38;2;248;248;242m  [0m[38;2;166;226;46m--autoparamkeys[0m
[38;2;248;248;242m  [0m[38;2;166;226;46m--autoparamslash[0m
[38;2;248;248;242m  [0m[38;2;166;226;46m--autopushd[0m
[38;2;248;248;242m  [0m[38;2;166;226;46m--autoremoveslash[0m
[38;2;248;248;242m  [0m[38;2;166;226;46m--autoresume[0m
[38;2;248;248;242m  [0m[38;2;166;226;46m--badpattern[0m
[38;2;248;248;242m  [0m[38;2;166;226;46m--banghist[0m
[38;2;248;248;242m  [0m[38;2;166;226;46m--bareglobqual[0m
[38;2;248;248;242m  [0m[38;2;166;226;46m--bashautolist[0m
[38;2;248;248;242m  [0m[38;2;166;226;46m--bashrematch[0m
[38;2;248;248;242m  [0m[38;2;166;226;46m--beep[0m
[38;2;248;248;242m  [0m[38;2;166;226;46m--bgnice[0m
[38;2;248;248;242m  [0m[38;2;166;226;46m--braceccl[0m
[38;2;248;248;242m  [0m[38;2;166;226;46m--bsdecho[0m
[38;2;248;248;242m  [0m[38;2;166;226;46m--caseglob[0m
[38;2;248;248;242m  [0m[38;2;166;226;46m--casematch[0m
[38;2;248;248;242m  [0m[38;2;166;226;46m--cbases[0m
[38;2;248;248;242m  [0m[38;2;166;226;46m--cdablevars[0m
[38;2;248;248;242m  [0m[38;2;166;226;46m--cdsilent[0m
[38;2;248;248;242m  [0m[38;2;166;226;46m--chasedots[0m
[38;2;248;248;242m  [0m[38;2;166;226;46m--chaselinks[0m
[38;2;248;248;242m  [0m[38;2;166;226;46m--checkjobs[0m
[38;2;248;248;242m  [0m[38;2;166;226;46m--checkrunningjobs[0m
[38;2;248;248;242m  [0m[38;2;166;226;46m--clobber[0m
[38;2;248;248;242m  [0m[38;2;166;226;46m--combiningchars[0m
[38;2;248;248;242m  [0m[38;2;166;226;46m--completealiases[0m
[38;2;248;248;242m  [0m[38;2;166;226;46m--completeinword[0m
[38;2;248;248;242m  [0m[38;2;166;226;46m--continueonerror[0m
[38;2;248;248;242m  [0m[38;2;166;226;46m--correct[0m
[38;2;248;248;242m  [0m[38;2;166;226;46m--correctall[0m
[38;2;248;248;242m  [0m[38;2;166;226;46m--cprecedences[0m
[38;2;248;248;242m  [0m[38;2;166;226;46m--cshjunkiehistory[0m
[38;2;248;248;242m  [0m[38;2;166;226;46m--cshjunkieloops[0m
[38;2;248;248;242m  [0m[38;2;166;226;46m--cshjunkiequotes[0m
[38;2;248;248;242m  [0m[38;2;166;226;46m--cshnullcmd[0m
[38;2;248;248;242m  [0m[38;2;166;226;46m--cshnullglob[0m
[38;2;248;248;242m  [0m[38;2;166;226;46m--debugbeforecmd[0m
[38;2;248;248;242m  [0m[38;2;166;226;46m--dvorak[0m
[38;2;248;248;242m  [0m[38;2;166;226;46m--emacs[0m
[38;2;248;248;242m  [0m[38;2;166;226;46m--equals[0m
[38;2;248;248;242m  [0m[38;2;166;226;46m--errexit[0m
[38;2;248;248;242m  [0m[38;2;166;226;46m--errreturn[0m
[38;2;248;248;242m  [0m[38;2;166;226;46m--evallineno[0m
[38;2;248;248;242m  [0m[38;2;166;226;46m--exec[0m
[38;2;248;248;242m  [0m[38;2;166;226;46m--extendedglob[0m
[38;2;248;248;242m  [0m[38;2;166;226;46m--extendedhistory[0m
[38;2;248;248;242m  [0m[38;2;166;226;46m--flowcontrol[0m
[38;2;248;248;242m  [0m[38;2;166;226;46m--forcefloat[0m
[38;2;248;248;242m  [0m[38;2;166;226;46m--functionargzero[0m
[38;2;248;248;242m  [0m[38;2;166;226;46m--glob[0m
[38;2;248;248;242m  [0m[38;2;166;226;46m--globalexport[0m
[38;2;248;248;242m  [0m[38;2;166;226;46m--globalrcs[0m
[38;2;248;248;242m  [0m[38;2;166;226;46m--globassign[0m
[38;2;248;248;242m  [0m[38;2;166;226;46m--globcomplete[0m
[38;2;248;248;242m  [0m[38;2;166;226;46m--globdots[0m
[38;2;248;248;242m  [0m[38;2;166;226;46m--globstarshort[0m
[38;2;248;248;242m  [0m[38;2;166;226;46m--globsubst[0m
[38;2;248;248;242m  [0m[38;2;166;226;46m--hashcmds[0m
[38;2;248;248;242m  [0m[38;2;166;226;46m--hashdirs[0m
[38;2;248;248;242m  [0m[38;2;166;226;46m--hashexecutablesonly[0m
[38;2;248;248;242m  [0m[38;2;166;226;46m--hashlistall[0m
[38;2;248;248;242m  [0m[38;2;166;226;46m--histallowclobber[0m
[38;2;248;248;242m  [0m[38;2;166;226;46m--histbeep[0m
[38;2;248;248;242m  [0m[38;2;166;226;46m--histexpiredupsfirst[0m
[38;2;248;248;242m  [0m[38;2;166;226;46m--histfcntllock[0m
[38;2;248;248;242m  [0m[38;2;166;226;46m--histfindnodups[0m
[38;2;248;248;242m  [0m[38;2;166;226;46m--histignorealldups[0m
[38;2;248;248;242m  [0m[38;2;166;226;46m--histignoredups[0m
[38;2;248;248;242m  [0m[38;2;166;226;46m--histignorespace[0m
[38;2;248;248;242m  [0m[38;2;166;226;46m--histlexwords[0m
[38;2;248;248;242m  [0m[38;2;166;226;46m--histnofunctions[0m
[38;2;248;248;242m  [0m[38;2;166;226;46m--histnostore[0m
[38;2;248;248;242m  [0m[38;2;166;226;46m--histreduceblanks[0m
[38;2;248;248;242m  [0m[38;2;166;226;46m--histsavebycopy[0m
[38;2;248;248;242m  [0m[38;2;166;226;46m--histsavenodups[0m
[38;2;248;248;242m  [0m[38;2;166;226;46m--histsubstpattern[0m
[38;2;248;248;242m  [0m[38;2;166;226;46m--histverify[0m
[38;2;248;248;242m  [0m[38;2;166;226;46m--hup[0m
[38;2;248;248;242m  [0m[38;2;166;226;46m--ignorebraces[0m
[38;2;248;248;242m  [0m[38;2;166;226;46m--ignoreclosebraces[0m
[38;2;248;248;242m  [0m[38;2;166;226;46m--ignoreeof[0m
[38;2;248;248;242m  [0m[38;2;166;226;46m--incappendhistory[0m
[38;2;248;248;242m  [0m[38;2;166;226;46m--incappendhistorytime[0m
[38;2;248;248;242m  [0m[38;2;166;226;46m--interactive[0m
[38;2;248;248;242m  [0m[38;2;166;226;46m--interactivecomments[0m
[38;2;248;248;242m  [0m[38;2;166;226;46m--ksharrays[0m
[38;2;248;248;242m  [0m[38;2;166;226;46m--kshautoload[0m
[38;2;248;248;242m  [0m[38;2;166;226;46m--kshglob[0m
[38;2;248;248;242m  [0m[38;2;166;226;46m--kshoptionprint[0m
[38;2;248;248;242m  [0m[38;2;166;226;46m--kshtypeset[0m
[38;2;248;248;242m  [0m[38;2;166;226;46m--kshzerosubscript[0m
[38;2;248;248;242m  [0m[38;2;166;226;46m--listambiguous[0m
[38;2;248;248;242m  [0m[38;2;166;226;46m--listbeep[0m
[38;2;248;248;242m  [0m[38;2;166;226;46m--listpacked[0m
[38;2;248;248;242m  [0m[38;2;166;226;46m--listrowsfirst[0m
[38;2;248;248;242m  [0m[38;2;166;226;46m--listtypes[0m
[38;2;248;248;242m  [0m[38;2;166;226;46m--localloops[0m
[38;2;248;248;242m  [0m[38;2;166;226;46m--localoptions[0m
[38;2;248;248;242m  [0m[38;2;166;226;46m--localpatterns[0m
[38;2;248;248;242m  [0m[38;2;166;226;46m--localtraps[0m
[38;2;248;248;242m  [0m[38;2;166;226;46m--login[0m
[38;2;248;248;242m  [0m[38;2;166;226;46m--longlistjobs[0m
[38;2;248;248;242m  [0m[38;2;166;226;46m--magicequalsubst[0m
[38;2;248;248;242m  [0m[38;2;166;226;46m--mailwarning[0m
[38;2;248;248;242m  [0m[38;2;166;226;46m--markdirs[0m
[38;2;248;248;242m  [0m[38;2;166;226;46m--menucomplete[0m
[38;2;248;248;242m  [0m[38;2;166;226;46m--monitor[0m
[38;2;248;248;242m  [0m[38;2;166;226;46m--multibyte[0m
[38;2;248;248;242m  [0m[38;2;166;226;46m--multifuncdef[0m
[38;2;248;248;242m  [0m[38;2;166;226;46m--multios[0m
[38;2;248;248;242m  [0m[38;2;166;226;46m--nomatch[0m
[38;2;248;248;242m  [0m[38;2;166;226;46m--notify[0m
[38;2;248;248;242m  [0m[38;2;166;226;46m--nullglob[0m
[38;2;248;248;242m  [0m[38;2;166;226;46m--numericglobsort[0m
[38;2;248;248;242m  [0m[38;2;166;226;46m--octalzeroes[0m
[38;2;248;248;242m  [0m[38;2;166;226;46m--overstrike[0m
[38;2;248;248;242m  [0m[38;2;166;226;46m--pathdirs[0m
[38;2;248;248;242m  [0m[38;2;166;226;46m--pathscript[0m
[38;2;248;248;242m  [0m[38;2;166;226;46m--pipefail[0m
[38;2;248;248;242m  [0m[38;2;166;226;46m--posixaliases[0m
[38;2;248;248;242m  [0m[38;2;166;226;46m--posixargzero[0m
[38;2;248;248;242m  [0m[38;2;166;226;46m--posixbuiltins[0m
[38;2;248;248;242m  [0m[38;2;166;226;46m--posixcd[0m
[38;2;248;248;242m  [0m[38;2;166;226;46m--posixidentifiers[0m
[38;2;248;248;242m  [0m[38;2;166;226;46m--posixjobs[0m
[38;2;248;248;242m  [0m[38;2;166;226;46m--posixstrings[0m
[38;2;248;248;242m  [0m[38;2;166;226;46m--posixtraps[0m
[38;2;248;248;242m  [0m[38;2;166;226;46m--printeightbit[0m
[38;2;248;248;242m  [0m[38;2;166;226;46m--printexitvalue[0m
[38;2;248;248;242m  [0m[38;2;166;226;46m--privileged[0m
[38;2;248;248;242m  [0m[38;2;166;226;46m--promptbang[0m
[38;2;248;248;242m  [0m[38;2;166;226;46m--promptcr[0m
[38;2;248;248;242m  [0m[38;2;166;226;46m--promptpercent[0m
[38;2;248;248;242m  [0m[38;2;166;226;46m--promptsp[0m
[38;2;248;248;242m  [0m[38;2;166;226;46m--promptsubst[0m
[38;2;248;248;242m  [0m[38;2;166;226;46m--pushdignoredups[0m
[38;2;248;248;242m  [0m[38;2;166;226;46m--pushdminus[0m
[38;2;248;248;242m  [0m[38;2;166;226;46m--pushdsilent[0m
[38;2;248;248;242m  [0m[38;2;166;226;46m--pushdtohome[0m
[38;2;248;248;242m  [0m[38;2;166;226;46m--rcexpandparam[0m
[38;2;248;248;242m  [0m[38;2;166;226;46m--rcquotes[0m
[38;2;248;248;242m  [0m[38;2;166;226;46m--rcs[0m
[38;2;248;248;242m  [0m[38;2;166;226;46m--recexact[0m
[38;2;248;248;242m  [0m[38;2;166;226;46m--rematchpcre[0m
[38;2;248;248;242m  [0m[38;2;166;226;46m--restricted[0m
[38;2;248;248;242m  [0m[38;2;166;226;46m--rmstarsilent[0m
[38;2;248;248;242m  [0m[38;2;166;226;46m--rmstarwait[0m
[38;2;248;248;242m  [0m[38;2;166;226;46m--sharehistory[0m
[38;2;248;248;242m  [0m[38;2;166;226;46m--shfileexpansion[0m
[38;2;248;248;242m  [0m[38;2;166;226;46m--shglob[0m
[38;2;248;248;242m  [0m[38;2;166;226;46m--shinstdin[0m
[38;2;248;248;242m  [0m[38;2;166;226;46m--shnullcmd[0m
[38;2;248;248;242m  [0m[38;2;166;226;46m--shoptionletters[0m
[38;2;248;248;242m  [0m[38;2;166;226;46m--shortloops[0m
[38;2;248;248;242m  [0m[38;2;166;226;46m--shwordsplit[0m
[38;2;248;248;242m  [0m[38;2;166;226;46m--singlecommand[0m
[38;2;248;248;242m  [0m[38;2;166;226;46m--singlelinezle[0m
[38;2;248;248;242m  [0m[38;2;166;226;46m--sourcetrace[0m
[38;2;248;248;242m  [0m[38;2;166;226;46m--sunkeyboardhack[0m
[38;2;248;248;242m  [0m[38;2;166;226;46m--transientrprompt[0m
[38;2;248;248;242m  [0m[38;2;166;226;46m--trapsasync[0m
[38;2;248;248;242m  [0m[38;2;166;226;46m--typesetsilent[0m
[38;2;248;248;242m  [0m[38;2;166;226;46m--unset[0m
[38;2;248;248;242m  [0m[38;2;166;226;46m--verbose[0m
[38;2;248;248;242m  [0m[38;2;166;226;46m--vi[0m
[38;2;248;248;242m  [0m[38;2;166;226;46m--warncreateglobal[0m
[38;2;248;248;242m  [0m[38;2;166;226;46m--warnnestedvar[0m
[38;2;248;248;242m  [0m[38;2;166;226;46m--xtrace[0m
[38;2;248;248;242m  [0m[38;2;166;226;46m--zle[0m

[38;2;246;170;17mOption aliases:[0m
[38;2;248;248;242m  [0m[38;2;166;226;46m--braceexpand[0m[38;2;248;248;242m            equivalent to --no-ignorebraces[0m
[38;2;248;248;242m  [0m[38;2;166;226;46m--dotglob[0m[38;2;248;248;242m                equivalent to --globdots[0m
[38;2;248;248;242m  [0m[38;2;166;226;46m--hashall[0m[38;2;248;248;242m                equivalent to --hashcmds[0m
[38;2;248;248;242m  [0m[38;2;166;226;46m--histappend[0m[38;2;248;248;242m             equivalent to --appendcreate[0m
[38;2;248;248;242m  [0m[38;2;166;226;46m--histexpand[0m[38;2;248;248;242m             equivalent to --badpattern[0m
[38;2;248;248;242m  [0m[38;2;166;226;46m--log[0m[38;2;248;248;242m                    equivalent to --no-histnofunctions[0m
[38;2;248;248;242m  [0m[38;2;166;226;46m--mailwarn[0m[38;2;248;248;242m               equivalent to --mailwarning[0m
[38;2;248;248;242m  [0m[38;2;166;226;46m--onecmd[0m[38;2;248;248;242m                 equivalent to --singlecommand[0m
[38;2;248;248;242m  [0m[38;2;166;226;46m--physical[0m[38;2;248;248;242m               equivalent to --cdsilent[0m
[38;2;248;248;242m  [0m[38;2;166;226;46m--promptvars[0m[38;2;248;248;242m             equivalent to --promptsubst[0m
[38;2;248;248;242m  [0m[38;2;166;226;46m--stdin[0m[38;2;248;248;242m                  equivalent to --shinstdin[0m
[38;2;248;248;242m  [0m[38;2;166;226;46m--trackall[0m[38;2;248;248;242m               equivalent to --hashcmds[0m

[38;2;246;170;17mOption letters:[0m
[38;2;248;248;242m  [0m[38;2;166;226;46m-0[0m[38;2;248;248;242m    equivalent to --completeinword[0m
[38;2;248;248;242m  [0m[38;2;166;226;46m-1[0m[38;2;248;248;242m    equivalent to --printexitvalue[0m
[38;2;248;248;242m  [0m[38;2;166;226;46m-2[0m[38;2;248;248;242m    equivalent to --no-autoresume[0m
[38;2;248;248;242m  [0m[38;2;166;226;46m-3[0m[38;2;248;248;242m    equivalent to --no-nomatch[0m
[38;2;248;248;242m  [0m[38;2;166;226;46m-4[0m[38;2;248;248;242m    equivalent to --globdots[0m
[38;2;248;248;242m  [0m[38;2;166;226;46m-5[0m[38;2;248;248;242m    equivalent to --notify[0m
[38;2;248;248;242m  [0m[38;2;166;226;46m-6[0m[38;2;248;248;242m    equivalent to --beep[0m
[38;2;248;248;242m  [0m[38;2;166;226;46m-7[0m[38;2;248;248;242m    equivalent to --ignoreeof[0m
[38;2;248;248;242m  [0m[38;2;166;226;46m-8[0m[38;2;248;248;242m    equivalent to --markdirs[0m
[38;2;248;248;242m  [0m[38;2;166;226;46m-9[0m[38;2;248;248;242m    equivalent to --autocontinue[0m
[38;2;248;248;242m  [0m[38;2;166;226;46m-B[0m[38;2;248;248;242m    equivalent to --no-bashrematch[0m
[38;2;248;248;242m  [0m[38;2;166;226;46m-C[0m[38;2;248;248;242m    equivalent to --no-checkjobs[0m
[38;2;248;248;242m  [0m[38;2;166;226;46m-D[0m[38;2;248;248;242m    equivalent to --pushdtohome[0m
[38;2;248;248;242m  [0m[38;2;166;226;46m-E[0m[38;2;248;248;242m    equivalent to --pushdsilent[0m
[38;2;248;248;242m  [0m[38;2;166;226;46m-F[0m[38;2;248;248;242m    equivalent to --no-glob[0m
[38;2;248;248;242m  [0m[38;2;166;226;46m-G[0m[38;2;248;248;242m    equivalent to --nullglob[0m
[38;2;248;248;242m  [0m[38;2;166;226;46m-H[0m[38;2;248;248;242m    equivalent to --rmstarsilent[0m
[38;2;248;248;242m  [0m[38;2;166;226;46m-I[0m[38;2;248;248;242m    equivalent to --ignorebraces[0m
[38;2;248;248;242m  [0m[38;2;166;226;46m-J[0m[38;2;248;248;242m    equivalent to --appendhistory[0m
[38;2;248;248;242m  [0m[38;2;166;226;46m-K[0m[38;2;248;248;242m    equivalent to --no-badpattern[0m
[38;2;248;248;242m  [0m[38;2;166;226;46m-L[0m[38;2;248;248;242m    equivalent to --sunkeyboardhack[0m
[38;2;248;248;242m  [0m[38;2;166;226;46m-M[0m[38;2;248;248;242m    equivalent to --singlelinezle[0m
[38;2;248;248;242m  [0m[38;2;166;226;46m-N[0m[38;2;248;248;242m    equivalent to --autoparamslash[0m
[38;2;248;248;242m  [0m[38;2;166;226;46m-O[0m[38;2;248;248;242m    equivalent to --continueonerror[0m
[38;2;248;248;242m  [0m[38;2;166;226;46m-P[0m[38;2;248;248;242m    equivalent to --rcexpandparam[0m
[38;2;248;248;242m  [0m[38;2;166;226;46m-Q[0m[38;2;248;248;242m    equivalent to --pathdirs[0m
[38;2;248;248;242m  [0m[38;2;166;226;46m-R[0m[38;2;248;248;242m    equivalent to --longlistjobs[0m
[38;2;248;248;242m  [0m[38;2;166;226;46m-S[0m[38;2;248;248;242m    equivalent to --recexact[0m
[38;2;248;248;242m  [0m[38;2;166;226;46m-T[0m[38;2;248;248;242m    equivalent to --cbases[0m
[38;2;248;248;242m  [0m[38;2;166;226;46m-U[0m[38;2;248;248;242m    equivalent to --mailwarning[0m
[38;2;248;248;242m  [0m[38;2;166;226;46m-V[0m[38;2;248;248;242m    equivalent to --no-promptcr[0m
[38;2;248;248;242m  [0m[38;2;166;226;46m-W[0m[38;2;248;248;242m    equivalent to --autoremoveslash[0m
[38;2;248;248;242m  [0m[38;2;166;226;46m-X[0m[38;2;248;248;242m    equivalent to --listtypes[0m
[38;2;248;248;242m  [0m[38;2;166;226;46m-Y[0m[38;2;248;248;242m    equivalent to --menucomplete[0m
[38;2;248;248;242m  [0m[38;2;166;226;46m-Z[0m[38;2;248;248;242m    equivalent to --zle[0m
[38;2;248;248;242m  [0m[38;2;166;226;46m-a[0m[38;2;248;248;242m    equivalent to --allexport[0m
[38;2;248;248;242m  [0m[38;2;166;226;46m-d[0m[38;2;248;248;242m    equivalent to --no-globalrcs[0m
[38;2;248;248;242m  [0m[38;2;166;226;46m-e[0m[38;2;248;248;242m    equivalent to --errexit[0m
[38;2;248;248;242m  [0m[38;2;166;226;46m-f[0m[38;2;248;248;242m    equivalent to --no-rcs[0m
[38;2;248;248;242m  [0m[38;2;166;226;46m-g[0m[38;2;248;248;242m    equivalent to --histignorespace[0m
[38;2;248;248;242m  [0m[38;2;166;226;46m-h[0m[38;2;248;248;242m    equivalent to --histignoredups[0m
[38;2;248;248;242m  [0m[38;2;166;226;46m-i[0m[38;2;248;248;242m    equivalent to --interactive[0m
[38;2;248;248;242m  [0m[38;2;166;226;46m-k[0m[38;2;248;248;242m    equivalent to --interactivecomments[0m
[38;2;248;248;242m  [0m[38;2;166;226;46m-l[0m[38;2;248;248;242m    equivalent to --login[0m
[38;2;248;248;242m  [0m[38;2;166;226;46m-m[0m[38;2;248;248;242m    equivalent to --monitor[0m
[38;2;248;248;242m  [0m[38;2;166;226;46m-n[0m[38;2;248;248;242m    equivalent to --no-exec[0m
[38;2;248;248;242m  [0m[38;2;166;226;46m-p[0m[38;2;248;248;242m    equivalent to --privileged[0m
[38;2;248;248;242m  [0m[38;2;166;226;46m-r[0m[38;2;248;248;242m    equivalent to --restricted[0m
[38;2;248;248;242m  [0m[38;2;166;226;46m-s[0m[38;2;248;248;242m    equivalent to --shinstdin[0m
[38;2;248;248;242m  [0m[38;2;166;226;46m-t[0m[38;2;248;248;242m    equivalent to --singlecommand[0m
[38;2;248;248;242m  [0m[38;2;166;226;46m-u[0m[38;2;248;248;242m    equivalent to --no-unset[0m
[38;2;248;248;242m  [0m[38;2;166;226;46m-v[0m[38;2;248;248;242m    equivalent to --verbose[0m
[38;2;248;248;242m  [0m[38;2;166;226;46m-w[0m[38;2;248;248;242m    equivalent to --cdsilent[0m
[38;2;248;248;242m  [0m[38;2;166;226;46m-x[0m[38;2;248;248;242m    equivalent to --xtrace[0m
[38;2;248;248;242m  [0m[38;2;166;226;46m-y[0m[38;2;248;248;242m    equivalent to --shwordsplit[0m
