{
    "install" : "readme.md",
    "1.0.0": "messages/1.0.0.txt",
    "1.0.1": "messages/1.0.1.txt",
    "1.0.2": "messages/1.0.2.txt",
    "1.1.0": "messages/1.1.0.txt",
    "1.1.1": "messages/1.1.1.txt",
    "1.1.2": "messages/1.1.2.txt",
    "1.1.3": "messages/1.1.3.txt",
    "1.1.4": "messages/1.1.4.txt",
    "1.1.5": "messages/1.1.5.txt",
    "1.1.6": "messages/1.1.6.txt",
    "1.1.7": "messages/1.1.7.txt",
    "1.1.8": "messages/1.1.8.txt",
    "1.2.0": "messages/1.2.0.txt",
    "1.3.0": "messages/1.3.0.txt",
    "1.3.1": "messages/1.3.1.txt",
    "1.3.2": "messages/1.3.2.txt",
    "1.3.3": "messages/1.3.3.txt",
    "1.3.4": "messages/1.3.4.txt",
    "1.4.0": "messages/1.4.0.txt",
    "1.4.1": "messages/1.4.1.txt",
    "1.5.0": "messages/1.5.0.txt",
    "1.6.0": "messages/1.6.0.txt",
    "1.6.1": "messages/1.6.1.txt",
    "1.6.2": "messages/1.6.2.txt",
    "1.6.3": "messages/1.6.3.txt",
    "1.7.0": "messages/1.7.0.txt",
    "1.7.1": "messages/1.7.1.txt",
    "1.7.2": "messages/1.7.2.txt",
    "1.7.3": "messages/1.7.3.txt",
    "1.8.0": "messages/1.8.0.txt",
    "1.9.0": "messages/1.9.0.txt",
    "1.10.0": "messages/1.10.0.txt",
    "1.10.1": "messages/1.10.1.txt",
    "1.10.2": "messages/1.10.2.txt",
    "1.10.3": "messages/1.10.3.txt",
    "1.10.4": "messages/1.10.4.txt",
    "1.11.0": "messages/1.11.0.txt",
    "1.11.1": "messages/1.11.1.txt",
    "1.11.2": "messages/1.11.2.txt",
    "1.11.3": "messages/1.11.3.txt",
    "1.12.0": "messages/1.12.0.txt",
    "1.12.1": "messages/1.12.1.txt",
    "1.12.2": "messages/1.12.2.txt",
    "1.12.3": "messages/1.12.3.txt",
    "1.13.0": "messages/1.13.0.txt",
    "1.13.1": "messages/1.13.1.txt",
    "1.13.2": "messages/1.13.2.txt",
    "1.13.3": "messages/1.13.3.txt",
    "1.13.4": "messages/1.13.4.txt",
    "1.13.5": "messages/1.13.5.txt",
    "1.14.0": "messages/1.14.0.txt",
    "1.14.1": "messages/1.14.1.txt",
    "1.14.2": "messages/1.14.2.txt",
    "1.15.0": "messages/1.15.0.txt",
    "1.15.1": "messages/1.15.1.txt",
    "1.15.2": "messages/1.15.2.txt",
    "2.0.0": "messages/2.0.0.txt",
    "2.1.0": "messages/2.1.0.txt",
    "2.1.1": "messages/2.1.1.txt",
    "2.1.2": "messages/2.1.2.txt",
    "2.1.3": "messages/2.1.3.txt",
    "2.2.0": "messages/2.2.0.txt",
    "2.3.0": "messages/2.3.0.txt",
    "2.3.1": "messages/2.3.1.txt",
    "2.3.2": "messages/2.3.2.txt",
    "2.4.0": "messages/2.4.0.txt",
    "2.4.1": "messages/2.4.1.txt",
    "2.4.2": "messages/2.4.2.txt",
    "2.4.3": "messages/2.4.3.txt",
    "2.5.0": "messages/2.5.0.txt",
    "2.5.1": "messages/2.5.1.txt",
    "2.6.0": "messages/2.6.0.txt",
    "2.6.1": "messages/2.6.1.txt",
    "2.6.2": "messages/2.6.2.txt",
    "2.6.3": "messages/2.6.3.txt",
    "2.6.4": "messages/2.6.4.txt",
    "2.6.5": "messages/2.6.5.txt",
    "2.6.6": "messages/2.6.6.txt",
    "2.6.7": "messages/2.6.7.txt",
    "2.6.8": "messages/2.6.8.txt",
    "2.7.0": "messages/2.7.0.txt",
    "2.7.1": "messages/2.7.1.txt",
    "2.7.2": "messages/2.7.2.txt",
    "2.7.3": "messages/2.7.3.txt",
    "2.8.0": "messages/2.8.0.txt",
    "2.8.1": "messages/2.8.1.txt",
    "2.8.2": "messages/2.8.2.txt",
    "2.8.3": "messages/2.8.3.txt",
    "2.8.4": "messages/2.8.4.txt",
    "2.8.5": "messages/2.8.5.txt",
    "2.8.6": "messages/2.8.6.txt",
    "2.8.7": "messages/2.8.7.txt",
    "2.8.8": "messages/2.8.8.txt",
    "2.8.9": "messages/2.8.9.txt",
    "2.9.0": "messages/2.9.0.txt",
    "2.9.1": "messages/2.9.1.txt",
    "2.9.2": "messages/2.9.2.txt",
    "2.9.3": "messages/2.9.3.txt",
    "2.9.4": "messages/2.9.4.txt",
    "2.10.0": "messages/2.10.0.txt",
    "2.10.1": "messages/2.10.1.txt",
    "2.10.2": "messages/2.10.2.txt",
    "2.10.3": "messages/2.10.3.txt",
    "2.10.4": "messages/2.10.4.txt",
    "2.11.0": "messages/2.11.0.txt",
    "2.11.1": "messages/2.11.1.txt",
    "2.11.2": "messages/2.11.2.txt",
    "2.12.0": "messages/2.12.0.txt",
    "2.12.1": "messages/2.12.1.txt",
    "2.13.0": "messages/2.13.0.txt",
    "2.13.1": "messages/2.13.1.txt",
    "2.14.0": "messages/2.14.0.txt",
    "2.14.1": "messages/2.14.1.txt",
    "2.14.2": "messages/2.14.2.txt",
    "2.14.3": "messages/2.14.3.txt",
    "2.14.4": "messages/2.14.4.txt",
    "2.14.5": "messages/2.14.5.txt",
    "2.14.6": "messages/2.14.6.txt",
    "2.15.0": "messages/2.15.0.txt",
    "2.15.1": "messages/2.15.1.txt",
    "2.15.2": "messages/2.15.2.txt",
    "2.15.3": "messages/2.15.3.txt",
    "2.15.4": "messages/2.15.4.txt",
    "2.15.5": "messages/2.15.5.txt",
    "2.15.6": "messages/2.15.6.txt",
    "2.15.7": "messages/2.15.7.txt",
    "2.16.0": "messages/2.16.0.txt",
    "2.17.0": "messages/2.17.0.txt",
    "2.17.1": "messages/2.17.1.txt",
    "2.17.2": "messages/2.17.2.txt",
    "2.18.0": "messages/2.18.0.txt",
    "2.18.1": "messages/2.18.1.txt",
    "2.18.2": "messages/2.18.2.txt",
    "2.19.0": "messages/2.19.0.txt",
    "2.19.1": "messages/2.19.1.txt",
    "2.20.0": "messages/2.20.0.txt",
    "2.20.1": "messages/2.20.1.txt",
    "2.20.2": "messages/2.20.2.txt",
    "2.20.3": "messages/2.20.3.txt",
    "2.21.0": "messages/2.21.0.txt",
    "2.21.1": "messages/2.21.1.txt",
    "2.21.2": "messages/2.21.2.txt",
    "2.21.3": "messages/2.21.3.txt",
    "2.21.4": "messages/2.21.4.txt",
    "2.21.5": "messages/2.21.5.txt",
    "2.21.6": "messages/2.21.6.txt",
    "2.21.7": "messages/2.21.7.txt",
    "2.21.8": "messages/2.21.8.txt",
    "2.21.9": "messages/2.21.9.txt",
    "2.21.10": "messages/2.21.10.txt",
    "2.21.11": "messages/2.21.11.txt",
    "2.22.0": "messages/2.22.0.txt",
    "2.22.1": "messages/2.22.1.txt",
    "2.22.2": "messages/2.22.2.txt",
    "2.22.3": "messages/2.22.3.txt",
    "2.23.0": "messages/2.23.0.txt",
    "2.23.1": "messages/2.23.1.txt",
    "2.23.2": "messages/2.23.2.txt",
    "2.23.3": "messages/2.23.3.txt",
    "2.23.4": "messages/2.23.4.txt",
    "2.23.5": "messages/2.23.5.txt",
    "2.23.6": "messages/2.23.6.txt",
    "2.23.7": "messages/2.23.7.txt",
    "2.23.8": "messages/2.23.8.txt",
    "2.23.9": "messages/2.23.9.txt",
    "2.23.10": "messages/2.23.10.txt",
    "2.23.11": "messages/2.23.11.txt",
    "2.23.12": "messages/2.23.12.txt",
    "2.23.13": "messages/2.23.13.txt",
    "2.23.15": "messages/2.23.15.txt",
    "2.23.16": "messages/2.23.16.txt",
    "2.23.17": "messages/2.23.17.txt"
}
