[38;2;253;176;130msynthetic[0m[38;2;248;248;242m - fake help message for testing theme support[0m

[38;2;248;248;242mMost of these lines come from actual help messages in tests/source/.[0m


[38;2;248;248;242m## HEADING PATTERNS:[0m

[38;2;251;227;191mSelection options[0m
[38;2;251;227;191mBasic Options:[0m
[38;2;251;227;191mUSAGE:[0m
[38;2;248;248;242m [0m[38;2;251;227;191mFinding manual pages:[0m
[38;2;251;227;191mAuto-correction:[0m
[38;2;251;227;191mGNU long options:[0m
[38;2;251;227;191mJIT options (experimental):[0m
[38;2;251;227;191mUsage:[0m[38;2;248;248;242m cp [OPTION]... [-T] SOURCE DEST[0m
[38;2;251;227;191musage:[0m[38;2;248;248;242m /home/user/.pyenv/versions/3.10.0/bin/python [option] ... [-c cmd | -m mod | file | -] [arg] ...[0m

[38;2;248;248;242mBut not if the line is longer than forty chars[0m
[38;2;248;248;242mnor if it begins with lowercase[0m
[38;2;248;248;242m   Nor after three spaces[0m
[38;2;248;248;242m	Nor after a tab[0m


[38;2;248;248;242m## OPTION PATTERNS:[0m

[38;2;248;248;242m    [0m[38;2;140;218;255m-A[0m[38;2;248;248;242m, [0m[38;2;140;218;255m--show-all[0m
[38;2;248;248;242m    [0m[38;2;140;218;255m-l[0m[38;2;248;248;242m, [0m[38;2;140;218;255m--language[0m[38;2;248;248;242m [0m[38;2;255;94;94m<language>[0m
[38;2;248;248;242m    [0m[38;2;140;218;255m-H[0m[38;2;248;248;242m, [0m[38;2;140;218;255m--highlight-line[0m[38;2;248;248;242m [0m[38;2;255;94;94m<N:M>[0m[38;2;255;94;94m...[0m
[38;2;248;248;242m        [0m[38;2;140;218;255m--file-name[0m[38;2;248;248;242m [0m[38;2;255;94;94m<name>[0m[38;2;255;94;94m...[0m
[38;2;248;248;242m      [0m[38;2;140;218;255m--backup[0m[38;2;248;248;242m[=[0m[38;2;255;94;94mCONTROL[0m[38;2;248;248;242m]       make a backup of each existing destination file[0m
[38;2;248;248;242m      [0m[38;2;140;218;255m--no-preserve[0m[38;2;248;248;242m=[0m[38;2;255;94;94mATTR_LIST[0m[38;2;248;248;242m  don't preserve the specified attributes[0m
[38;2;248;248;242m  [0m[38;2;140;218;255m-R[0m[38;2;248;248;242m, [0m[38;2;140;218;255m-r[0m[38;2;248;248;242m, [0m[38;2;140;218;255m--recursive[0m[38;2;248;248;242m          copy directories recursively[0m
[38;2;248;248;242m	[0m[38;2;140;218;255m-ilrsD[0m[38;2;248;248;242m or [0m[38;2;140;218;255m-c[0m[38;2;248;248;242m [0m[38;2;255;94;94mcommand[0m[38;2;248;248;242m or [0m[38;2;140;218;255m-O[0m[38;2;248;248;242m [0m[38;2;255;94;94mshopt_option[0m[38;2;248;248;242m		(invocation only)[0m
[38;2;248;248;242m     [0m[38;2;140;218;255m--alt-svc[0m[38;2;248;248;242m [0m[38;2;255;94;94m<file name>[0m[38;2;248;248;242m Enable alt-svc with this cache file[0m
[38;2;248;248;242m [0m[38;2;140;218;255m-b[0m[38;2;248;248;242m, [0m[38;2;140;218;255m--cookie[0m[38;2;248;248;242m [0m[38;2;255;94;94m<data|filename>[0m[38;2;248;248;242m Send cookies from string/file[0m
[38;2;248;248;242m     [0m[38;2;140;218;255m--tlsv1.0[0m[38;2;248;248;242m       Use TLSv1.0 or greater[0m
[38;2;248;248;242m      [0m[38;2;140;218;255m--label[0m[38;2;248;248;242m [0m[38;2;255;94;94mLABEL[0m[38;2;248;248;242m             use LABEL instead of file name and timestamp[0m
[38;2;248;248;242m      [0m[38;2;140;218;255m--from-file[0m[38;2;248;248;242m=[0m[38;2;255;94;94mFILE1[0m[38;2;248;248;242m           compare FILE1 to all operands;[0m
[38;2;248;248;242m  [0m[38;2;140;218;255m--help[0m[38;2;248;248;242m={[0m[38;2;255;94;94mcommon[0m[38;2;248;248;242m|[0m[38;2;255;94;94moptimizers[0m[38;2;248;248;242m|[0m[38;2;255;94;94mparams[0m[38;2;248;248;242m|[0m[38;2;255;94;94mtarget[0m[38;2;248;248;242m|[0m[38;2;255;94;94mwarnings[0m[38;2;248;248;242m|[0m[38;2;255;94;94m[^]{joined[0m[38;2;248;248;242m|[0m[38;2;255;94;94mseparate[0m[38;2;248;248;242m|[0m[38;2;255;94;94mundocumented[0m[38;2;248;248;242m}}[,...].[0m
[38;2;248;248;242m  [0m[38;2;140;218;255m-print-search-dirs[0m[38;2;248;248;242m       Display the directories in the compiler's search path.[0m
[38;2;248;248;242m  [0m[38;2;140;218;255m-print-file-name[0m[38;2;248;248;242m=[0m[38;2;255;94;94m<lib>[0m[38;2;248;248;242m   Display the full path to library <lib>.[0m
[38;2;248;248;242m  [0m[38;2;140;218;255m-Wa[0m[38;2;248;248;242m,[0m[38;2;255;94;94m<options>[0m[38;2;248;248;242m            Pass comma-separated <options> on to the assembler.[0m
[38;2;140;218;255m-C[0m[38;2;248;248;242m [0m[38;2;140;218;255m--no-color[0m[38;2;248;248;242m               Use a monochrome color scheme[0m
[38;2;248;248;242m  [0m[38;2;140;218;255m-r[0m[38;2;248;248;242m [0m[38;2;255;94;94mload-module[0m[38;2;248;248;242m    Same as `ruby -r'[0m
[38;2;248;248;242m  [0m[38;2;140;218;255m--sample-book-mode[0m[38;2;248;248;242m/[0m[38;2;140;218;255m--simple-prompt[0m
[38;2;248;248;242m    [0m[38;2;140;218;255m-D[0m[38;2;255;94;94m<name>[0m[38;2;248;248;242m=[0m[38;2;255;94;94m<value>[0m
[38;2;248;248;242m    [0m[38;2;140;218;255m-verbose[0m[38;2;248;248;242m:[[0m[38;2;255;94;94mclass[0m[38;2;248;248;242m|[0m[38;2;255;94;94mgc[0m[38;2;248;248;242m|[0m[38;2;255;94;94mjni[0m[38;2;248;248;242m][0m
[38;2;248;248;242m    [0m[38;2;140;218;255m-version[0m[38;2;248;248;242m:[0m[38;2;255;94;94m<value>[0m
[38;2;248;248;242m    [0m[38;2;140;218;255m-ea[0m[38;2;248;248;242m[[0m[38;2;255;94;94m:<packagename>...[0m[38;2;248;248;242m|[0m[38;2;255;94;94m:<classname>[0m[38;2;248;248;242m][0m
[38;2;248;248;242m    [0m[38;2;140;218;255m-agentlib[0m[38;2;248;248;242m:[0m[38;2;255;94;94m<libname>[0m[38;2;248;248;242m[=[0m[38;2;255;94;94m<options>[0m[38;2;248;248;242m][0m
[38;2;248;248;242m [0m[38;2;140;218;255m-A[0m[38;2;248;248;242m             [0m[38;2;140;218;255m--smarthome[0m[38;2;248;248;242m             Enable smart home key[0m
[38;2;140;218;255m-m[0m[38;2;248;248;242m [0m[38;2;255;94;94mmod[0m[38;2;248;248;242m : run library module as a script (terminates option list)[0m
[38;2;248;248;242m        [0m[38;2;140;218;255m--except[0m[38;2;248;248;242m [[0m[38;2;255;94;94mCOP1,COP2,...[0m[38;2;248;248;242m]     Exclude the given cop(s).[0m
[38;2;248;248;242m    [0m[38;2;140;218;255m-P[0m[38;2;248;248;242m, [0m[38;2;140;218;255m--[0m[38;2;248;248;242m[[0m[38;2;255;94;94mno-[0m[38;2;248;248;242m]parallel              Use available CPUs to execute inspection in[0m
[38;2;248;248;242m  [0m[38;2;140;218;255m-0[0m[38;2;248;248;242m[[0m[38;2;255;94;94moctal[0m[38;2;248;248;242m]       specify record separator (\0, if no argument)[0m
[38;2;248;248;242m  [0m[38;2;140;218;255m-Cdirectory[0m[38;2;248;248;242m     cd to directory before executing your script[0m
[38;2;248;248;242m  [0m[38;2;140;218;255m-e[0m[38;2;248;248;242m [0m[38;2;255;94;94m'command'[0m[38;2;248;248;242m    one line of script. Several -e's allowed. Omit [programfile][0m
[38;2;248;248;242m  [0m[38;2;140;218;255m-Eex[0m[38;2;248;248;242m[[0m[38;2;255;94;94m:in[0m[38;2;248;248;242m], [0m[38;2;140;218;255m--encoding[0m[38;2;248;248;242m=[0m[38;2;255;94;94mex[0m[38;2;248;248;242m[[0m[38;2;255;94;94m:in[0m[38;2;248;248;242m][0m
[38;2;248;248;242m  [0m[38;2;140;218;255m-rlibrary[0m[38;2;248;248;242m       require the library before executing your script[0m
[38;2;248;248;242m  [0m[38;2;140;218;255m-W[0m[38;2;248;248;242m[[0m[38;2;255;94;94mlevel=2[0m[38;2;248;248;242m|[0m[38;2;255;94;94m:category[0m[38;2;248;248;242m][0m
[38;2;248;248;242m  [0m[38;2;140;218;255m--jit-[0m[38;2;248;248;242m[[0m[38;2;255;94;94moption[0m[38;2;248;248;242m]  enable JIT with an option (experimental)[0m
[38;2;248;248;242m  [0m[38;2;140;218;255m--dump[0m[38;2;248;248;242m={[0m[38;2;255;94;94minsns[0m[38;2;248;248;242m|[0m[38;2;255;94;94mparsetree[0m[38;2;248;248;242m|[0m[38;2;255;94;94m...[0m[38;2;248;248;242m}[[0m[38;2;255;94;94m,...[0m[38;2;248;248;242m][0m
[38;2;248;248;242m  [0m[38;2;140;218;255m--external-encoding[0m[38;2;248;248;242m=[0m[38;2;255;94;94mencoding[0m[38;2;248;248;242m, [0m[38;2;140;218;255m--internal-encoding[0m[38;2;248;248;242m=[0m[38;2;255;94;94mencoding[0m
[38;2;248;248;242m  [0m[38;2;140;218;255m--backtrace-limit[0m[38;2;248;248;242m=[0m[38;2;255;94;94mnum[0m
[38;2;248;248;242m  [0m[38;2;140;218;255m-h[0m[38;2;248;248;242m | [0m[38;2;140;218;255m--help[0m[38;2;248;248;242m         print this message[0m
[38;2;248;248;242m  [0m[38;2;140;218;255m--color[0m[38;2;248;248;242m=[0m[38;2;255;94;94mauto[0m[38;2;248;248;242m|[0m[38;2;255;94;94malways[0m[38;2;248;248;242m|[0m[38;2;255;94;94mtrue[0m[38;2;248;248;242m|[0m[38;2;255;94;94mfalse[0m[38;2;248;248;242m|[0m[38;2;255;94;94mnever[0m
[38;2;248;248;242m  [0m[38;2;140;218;255m-w[0m[38;2;248;248;242m {[0m[38;2;255;94;94mshow[0m[38;2;248;248;242m,[0m[38;2;255;94;94mhide[0m[38;2;248;248;242m,[0m[38;2;255;94;94monly[0m[38;2;248;248;242m}, [0m[38;2;140;218;255m--window[0m[38;2;248;248;242m {[0m[38;2;255;94;94mshow[0m[38;2;248;248;242m,[0m[38;2;255;94;94mhide[0m[38;2;248;248;242m,[0m[38;2;255;94;94monly[0m[38;2;248;248;242m}[0m
[38;2;248;248;242m   [0m[38;2;140;218;255m-h[0m[38;2;248;248;242m  or  [0m[38;2;140;218;255m--help[0m[38;2;248;248;242m	Print Help (this message) and exit[0m
[38;2;248;248;242m  [0m[38;2;140;218;255m--display[0m[38;2;248;248;242m [0m[38;2;255;94;94mdisplayname[0m
[38;2;248;248;242m  [0m[38;2;140;218;255m-t[0m[38;2;248;248;242m [0m[38;2;255;94;94mms[0m[38;2;248;248;242m, [0m[38;2;140;218;255m--selectionTimeout[0m[38;2;248;248;242m [0m[38;2;255;94;94mms[0m
[38;2;248;248;242m      [--skip-active-storage], [--no-skip-active-storage]    # Skip Active Storage files[0m
[38;2;248;248;242m   [0m[38;2;253;176;130m--[0m[38;2;248;248;242m			Only file names after this[0m


[38;2;248;248;242m## ARGUMENT PATTERNS:[0m

[38;2;248;248;242m(collapse with other patterns?)[0m

[38;2;248;248;242m    [0m[38;2;255;94;94m<FILE>...[0m
[38;2;255;94;94m-[0m[38;2;248;248;242m      : program read from stdin (default; interactive mode if a tty)[0m
[38;2;255;94;94marg[0m[38;2;248;248;242m [0m[38;2;255;94;94m...[0m[38;2;248;248;242m: arguments passed to program in sys.argv[1:][0m


[38;2;248;248;242m## OTHER PATTERNS:[0m

[38;2;248;248;242m   [0m[38;2;253;176;130mcommit[0m[38;2;248;248;242m            Record changes to the repository[0m
[38;2;248;248;242m    [0m[38;2;253;176;130mcache[0m[38;2;248;248;242m    Modify the syntax-definition and theme cache[0m
[38;2;248;248;242m    [0m[38;2;253;176;130mbuild[0m[38;2;248;248;242m, [0m[38;2;253;176;130mb[0m[38;2;248;248;242m    Compile the current package[0m
[38;2;248;248;242m  [0m[38;2;253;176;130mlist[0m[38;2;248;248;242m - list packages based on package names[0m
[38;2;248;248;242m  [0m[38;2;253;176;130mfull-upgrade[0m[38;2;248;248;242m - upgrade the system by removing/installing/upgrading packages[0m
[38;2;248;248;242m  [0m[38;2;253;176;130mfdatasync[0m[38;2;248;248;242m  physically write output file data before finishing[0m
[38;2;248;248;242m  [0m[38;2;253;176;130mcompose*[0m[38;2;248;248;242m    Docker Compose (Docker Inc., v2.2.3)[0m
[38;2;248;248;242m  [0m[38;2;253;176;130mdid_you_mean[0m[38;2;248;248;242m    did_you_mean (default: enabled)[0m
[38;2;248;248;242m  [0m[38;2;253;176;130mfrozen-string-literal[0m
[38;2;253;176;130mfile[0m[38;2;248;248;242m   : program read from script file[0m

[38;2;255;94;94mFILE[0m[38;2;248;248;242m                    visit FILE[0m
[38;2;255;94;94mPYTHONSTARTUP[0m[38;2;248;248;242m: file executed on interactive startup (no default)[0m
[38;2;248;248;242m  [0m[38;2;255;94;94mJAVA_OPTS[0m[38;2;248;248;242m           environment variable, if unset uses "-Dfile.encoding=UTF-8"[0m
[38;2;248;248;242m  [0m[38;2;255;94;94m'warn'[0m[38;2;248;248;242m         diagnose errors writing to any output[0m

[38;2;248;248;242m  [0m[3;38;2;252;147;84m.jvmopts[0m[38;2;248;248;242m            if this file exists in the current directory, its contents[0m
[38;2;248;248;242m  [0m[3;38;2;252;147;84m/etc/sbt/sbtopts[0m[38;2;248;248;242m    if this file exists, it is prepended to the runner args[0m
[3;38;2;252;147;84mpath/.to/file[0m
[3;38;2;252;147;84m~/.config/bat[0m
[3;38;2;252;147;84m~/.config/bat/[0m

[38;2;248;248;242m   [0m[38;2;140;218;255m+[0m[38;2;248;248;242m			Start at end of file[0m
[38;2;248;248;242m   [0m[38;2;140;218;255m+[0m[38;2;255;94;94m<lnum>[0m[38;2;248;248;242m		Start at line <lnum>[0m
[38;2;140;218;255m+[0m[38;2;255;94;94mLINE[0m[38;2;248;248;242m                   go to line LINE in next FILE[0m
[38;2;140;218;255m+[0m[38;2;255;94;94mLINE:COLUMN[0m[38;2;248;248;242m            go to line LINE, column COLUMN, in next FILE[0m


[38;2;248;248;242m## PRE-EXISTING FORMAT:[0m

[1m[38;2;248;248;242m[1mIt skips over bold text[0m[0m
[38;2;251;227;191mAnd continues normal operation[0m
[38;2;248;248;242m(as proven by the previous line being scoped as heading)[0m
[31m[38;2;248;248;242m[31mBut it aborts on color codes (this is red text)[0m[0m
[38;2;248;248;242mAnd stops operation for what is left[0m
[38;2;248;248;242m(otherwise the previous line would have been scoped as heading)[0m
