[38;2;104;77;153msynthetic[0m[38;2;73;72;62m - fake help message for testing theme support[0m

[38;2;73;72;62mMost of these lines come from actual help messages in tests/source/.[0m


[38;2;73;72;62m## HEADING PATTERNS:[0m

[38;2;246;170;17mSelection options[0m
[38;2;246;170;17mBasic Options:[0m
[38;2;246;170;17mUSAGE:[0m
[38;2;73;72;62m [0m[38;2;246;170;17mFinding manual pages:[0m
[38;2;246;170;17mAuto-correction:[0m
[38;2;246;170;17mGNU long options:[0m
[38;2;246;170;17mJIT options (experimental):[0m
[38;2;246;170;17mUsage:[0m[38;2;73;72;62m cp [OPTION]... [-T] SOURCE DEST[0m
[38;2;246;170;17musage:[0m[38;2;73;72;62m /home/user/.pyenv/versions/3.10.0/bin/python [option] ... [-c cmd | -m mod | file | -] [arg] ...[0m

[38;2;73;72;62mBut not if the line is longer than forty chars[0m
[38;2;73;72;62mnor if it begins with lowercase[0m
[38;2;73;72;62m   Nor after three spaces[0m
[38;2;73;72;62m	Nor after a tab[0m


[38;2;73;72;62m## OPTION PATTERNS:[0m

[38;2;73;72;62m    [0m[38;2;103;156;0m-A[0m[38;2;73;72;62m, [0m[38;2;103;156;0m--show-all[0m
[38;2;73;72;62m    [0m[38;2;103;156;0m-l[0m[38;2;73;72;62m, [0m[38;2;103;156;0m--language[0m[38;2;73;72;62m [0m[38;2;249;0;90m<language>[0m
[38;2;73;72;62m    [0m[38;2;103;156;0m-H[0m[38;2;73;72;62m, [0m[38;2;103;156;0m--highlight-line[0m[38;2;73;72;62m [0m[38;2;249;0;90m<N:M>[0m[38;2;249;0;90m...[0m
[38;2;73;72;62m        [0m[38;2;103;156;0m--file-name[0m[38;2;73;72;62m [0m[38;2;249;0;90m<name>[0m[38;2;249;0;90m...[0m
[38;2;73;72;62m      [0m[38;2;103;156;0m--backup[0m[38;2;73;72;62m[=[0m[38;2;249;0;90mCONTROL[0m[38;2;73;72;62m]       make a backup of each existing destination file[0m
[38;2;73;72;62m      [0m[38;2;103;156;0m--no-preserve[0m[38;2;73;72;62m=[0m[38;2;249;0;90mATTR_LIST[0m[38;2;73;72;62m  don't preserve the specified attributes[0m
[38;2;73;72;62m  [0m[38;2;103;156;0m-R[0m[38;2;73;72;62m, [0m[38;2;103;156;0m-r[0m[38;2;73;72;62m, [0m[38;2;103;156;0m--recursive[0m[38;2;73;72;62m          copy directories recursively[0m
[38;2;73;72;62m	[0m[38;2;103;156;0m-ilrsD[0m[38;2;73;72;62m or [0m[38;2;103;156;0m-c[0m[38;2;73;72;62m [0m[38;2;249;0;90mcommand[0m[38;2;73;72;62m or [0m[38;2;103;156;0m-O[0m[38;2;73;72;62m [0m[38;2;249;0;90mshopt_option[0m[38;2;73;72;62m		(invocation only)[0m
[38;2;73;72;62m     [0m[38;2;103;156;0m--alt-svc[0m[38;2;73;72;62m [0m[38;2;249;0;90m<file name>[0m[38;2;73;72;62m Enable alt-svc with this cache file[0m
[38;2;73;72;62m [0m[38;2;103;156;0m-b[0m[38;2;73;72;62m, [0m[38;2;103;156;0m--cookie[0m[38;2;73;72;62m [0m[38;2;249;0;90m<data|filename>[0m[38;2;73;72;62m Send cookies from string/file[0m
[38;2;73;72;62m     [0m[38;2;103;156;0m--tlsv1.0[0m[38;2;73;72;62m       Use TLSv1.0 or greater[0m
[38;2;73;72;62m      [0m[38;2;103;156;0m--label[0m[38;2;73;72;62m [0m[38;2;249;0;90mLABEL[0m[38;2;73;72;62m             use LABEL instead of file name and timestamp[0m
[38;2;73;72;62m      [0m[38;2;103;156;0m--from-file[0m[38;2;73;72;62m=[0m[38;2;249;0;90mFILE1[0m[38;2;73;72;62m           compare FILE1 to all operands;[0m
[38;2;73;72;62m  [0m[38;2;103;156;0m--help[0m[38;2;73;72;62m={[0m[38;2;249;0;90mcommon[0m[38;2;73;72;62m|[0m[38;2;249;0;90moptimizers[0m[38;2;73;72;62m|[0m[38;2;249;0;90mparams[0m[38;2;73;72;62m|[0m[38;2;249;0;90mtarget[0m[38;2;73;72;62m|[0m[38;2;249;0;90mwarnings[0m[38;2;73;72;62m|[0m[38;2;249;0;90m[^]{joined[0m[38;2;73;72;62m|[0m[38;2;249;0;90mseparate[0m[38;2;73;72;62m|[0m[38;2;249;0;90mundocumented[0m[38;2;73;72;62m}}[,...].[0m
[38;2;73;72;62m  [0m[38;2;103;156;0m-print-search-dirs[0m[38;2;73;72;62m       Display the directories in the compiler's search path.[0m
[38;2;73;72;62m  [0m[38;2;103;156;0m-print-file-name[0m[38;2;73;72;62m=[0m[38;2;249;0;90m<lib>[0m[38;2;73;72;62m   Display the full path to library <lib>.[0m
[38;2;73;72;62m  [0m[38;2;103;156;0m-Wa[0m[38;2;73;72;62m,[0m[38;2;249;0;90m<options>[0m[38;2;73;72;62m            Pass comma-separated <options> on to the assembler.[0m
[38;2;103;156;0m-C[0m[38;2;73;72;62m [0m[38;2;103;156;0m--no-color[0m[38;2;73;72;62m               Use a monochrome color scheme[0m
[38;2;73;72;62m  [0m[38;2;103;156;0m-r[0m[38;2;73;72;62m [0m[38;2;249;0;90mload-module[0m[38;2;73;72;62m    Same as `ruby -r'[0m
[38;2;73;72;62m  [0m[38;2;103;156;0m--sample-book-mode[0m[38;2;73;72;62m/[0m[38;2;103;156;0m--simple-prompt[0m
[38;2;73;72;62m    [0m[38;2;103;156;0m-D[0m[38;2;249;0;90m<name>[0m[38;2;73;72;62m=[0m[38;2;249;0;90m<value>[0m
[38;2;73;72;62m    [0m[38;2;103;156;0m-verbose[0m[38;2;73;72;62m:[[0m[38;2;249;0;90mclass[0m[38;2;73;72;62m|[0m[38;2;249;0;90mgc[0m[38;2;73;72;62m|[0m[38;2;249;0;90mjni[0m[38;2;73;72;62m][0m
[38;2;73;72;62m    [0m[38;2;103;156;0m-version[0m[38;2;73;72;62m:[0m[38;2;249;0;90m<value>[0m
[38;2;73;72;62m    [0m[38;2;103;156;0m-ea[0m[38;2;73;72;62m[[0m[38;2;249;0;90m:<packagename>...[0m[38;2;73;72;62m|[0m[38;2;249;0;90m:<classname>[0m[38;2;73;72;62m][0m
[38;2;73;72;62m    [0m[38;2;103;156;0m-agentlib[0m[38;2;73;72;62m:[0m[38;2;249;0;90m<libname>[0m[38;2;73;72;62m[=[0m[38;2;249;0;90m<options>[0m[38;2;73;72;62m][0m
[38;2;73;72;62m [0m[38;2;103;156;0m-A[0m[38;2;73;72;62m             [0m[38;2;103;156;0m--smarthome[0m[38;2;73;72;62m             Enable smart home key[0m
[38;2;103;156;0m-m[0m[38;2;73;72;62m [0m[38;2;249;0;90mmod[0m[38;2;73;72;62m : run library module as a script (terminates option list)[0m
[38;2;73;72;62m        [0m[38;2;103;156;0m--except[0m[38;2;73;72;62m [[0m[38;2;249;0;90mCOP1,COP2,...[0m[38;2;73;72;62m]     Exclude the given cop(s).[0m
[38;2;73;72;62m    [0m[38;2;103;156;0m-P[0m[38;2;73;72;62m, [0m[38;2;103;156;0m--[0m[38;2;73;72;62m[[0m[38;2;249;0;90mno-[0m[38;2;73;72;62m]parallel              Use available CPUs to execute inspection in[0m
[38;2;73;72;62m  [0m[38;2;103;156;0m-0[0m[38;2;73;72;62m[[0m[38;2;249;0;90moctal[0m[38;2;73;72;62m]       specify record separator (\0, if no argument)[0m
[38;2;73;72;62m  [0m[38;2;103;156;0m-Cdirectory[0m[38;2;73;72;62m     cd to directory before executing your script[0m
[38;2;73;72;62m  [0m[38;2;103;156;0m-e[0m[38;2;73;72;62m [0m[38;2;249;0;90m'command'[0m[38;2;73;72;62m    one line of script. Several -e's allowed. Omit [programfile][0m
[38;2;73;72;62m  [0m[38;2;103;156;0m-Eex[0m[38;2;73;72;62m[[0m[38;2;249;0;90m:in[0m[38;2;73;72;62m], [0m[38;2;103;156;0m--encoding[0m[38;2;73;72;62m=[0m[38;2;249;0;90mex[0m[38;2;73;72;62m[[0m[38;2;249;0;90m:in[0m[38;2;73;72;62m][0m
[38;2;73;72;62m  [0m[38;2;103;156;0m-rlibrary[0m[38;2;73;72;62m       require the library before executing your script[0m
[38;2;73;72;62m  [0m[38;2;103;156;0m-W[0m[38;2;73;72;62m[[0m[38;2;249;0;90mlevel=2[0m[38;2;73;72;62m|[0m[38;2;249;0;90m:category[0m[38;2;73;72;62m][0m
[38;2;73;72;62m  [0m[38;2;103;156;0m--jit-[0m[38;2;73;72;62m[[0m[38;2;249;0;90moption[0m[38;2;73;72;62m]  enable JIT with an option (experimental)[0m
[38;2;73;72;62m  [0m[38;2;103;156;0m--dump[0m[38;2;73;72;62m={[0m[38;2;249;0;90minsns[0m[38;2;73;72;62m|[0m[38;2;249;0;90mparsetree[0m[38;2;73;72;62m|[0m[38;2;249;0;90m...[0m[38;2;73;72;62m}[[0m[38;2;249;0;90m,...[0m[38;2;73;72;62m][0m
[38;2;73;72;62m  [0m[38;2;103;156;0m--external-encoding[0m[38;2;73;72;62m=[0m[38;2;249;0;90mencoding[0m[38;2;73;72;62m, [0m[38;2;103;156;0m--internal-encoding[0m[38;2;73;72;62m=[0m[38;2;249;0;90mencoding[0m
[38;2;73;72;62m  [0m[38;2;103;156;0m--backtrace-limit[0m[38;2;73;72;62m=[0m[38;2;249;0;90mnum[0m
[38;2;73;72;62m  [0m[38;2;103;156;0m-h[0m[38;2;73;72;62m | [0m[38;2;103;156;0m--help[0m[38;2;73;72;62m         print this message[0m
[38;2;73;72;62m  [0m[38;2;103;156;0m--color[0m[38;2;73;72;62m=[0m[38;2;249;0;90mauto[0m[38;2;73;72;62m|[0m[38;2;249;0;90malways[0m[38;2;73;72;62m|[0m[38;2;249;0;90mtrue[0m[38;2;73;72;62m|[0m[38;2;249;0;90mfalse[0m[38;2;73;72;62m|[0m[38;2;249;0;90mnever[0m
[38;2;73;72;62m  [0m[38;2;103;156;0m-w[0m[38;2;73;72;62m {[0m[38;2;249;0;90mshow[0m[38;2;73;72;62m,[0m[38;2;249;0;90mhide[0m[38;2;73;72;62m,[0m[38;2;249;0;90monly[0m[38;2;73;72;62m}, [0m[38;2;103;156;0m--window[0m[38;2;73;72;62m {[0m[38;2;249;0;90mshow[0m[38;2;73;72;62m,[0m[38;2;249;0;90mhide[0m[38;2;73;72;62m,[0m[38;2;249;0;90monly[0m[38;2;73;72;62m}[0m
[38;2;73;72;62m   [0m[38;2;103;156;0m-h[0m[38;2;73;72;62m  or  [0m[38;2;103;156;0m--help[0m[38;2;73;72;62m	Print Help (this message) and exit[0m
[38;2;73;72;62m  [0m[38;2;103;156;0m--display[0m[38;2;73;72;62m [0m[38;2;249;0;90mdisplayname[0m
[38;2;73;72;62m  [0m[38;2;103;156;0m-t[0m[38;2;73;72;62m [0m[38;2;249;0;90mms[0m[38;2;73;72;62m, [0m[38;2;103;156;0m--selectionTimeout[0m[38;2;73;72;62m [0m[38;2;249;0;90mms[0m
[38;2;73;72;62m      [--skip-active-storage], [--no-skip-active-storage]    # Skip Active Storage files[0m
[38;2;73;72;62m   [0m[38;2;104;77;153m--[0m[38;2;73;72;62m			Only file names after this[0m


[38;2;73;72;62m## ARGUMENT PATTERNS:[0m

[38;2;73;72;62m(collapse with other patterns?)[0m

[38;2;73;72;62m    [0m[38;2;249;0;90m<FILE>...[0m
[38;2;249;0;90m-[0m[38;2;73;72;62m      : program read from stdin (default; interactive mode if a tty)[0m
[38;2;249;0;90marg[0m[38;2;73;72;62m [0m[38;2;249;0;90m...[0m[38;2;73;72;62m: arguments passed to program in sys.argv[1:][0m


[38;2;73;72;62m## OTHER PATTERNS:[0m

[38;2;73;72;62m   [0m[38;2;104;77;153mcommit[0m[38;2;73;72;62m            Record changes to the repository[0m
[38;2;73;72;62m    [0m[38;2;104;77;153mcache[0m[38;2;73;72;62m    Modify the syntax-definition and theme cache[0m
[38;2;73;72;62m    [0m[38;2;104;77;153mbuild[0m[38;2;73;72;62m, [0m[38;2;104;77;153mb[0m[38;2;73;72;62m    Compile the current package[0m
[38;2;73;72;62m  [0m[38;2;104;77;153mlist[0m[38;2;73;72;62m - list packages based on package names[0m
[38;2;73;72;62m  [0m[38;2;104;77;153mfull-upgrade[0m[38;2;73;72;62m - upgrade the system by removing/installing/upgrading packages[0m
[38;2;73;72;62m  [0m[38;2;104;77;153mfdatasync[0m[38;2;73;72;62m  physically write output file data before finishing[0m
[38;2;73;72;62m  [0m[38;2;104;77;153mcompose*[0m[38;2;73;72;62m    Docker Compose (Docker Inc., v2.2.3)[0m
[38;2;73;72;62m  [0m[38;2;104;77;153mdid_you_mean[0m[38;2;73;72;62m    did_you_mean (default: enabled)[0m
[38;2;73;72;62m  [0m[38;2;104;77;153mfrozen-string-literal[0m
[38;2;104;77;153mfile[0m[38;2;73;72;62m   : program read from script file[0m

[38;2;249;0;90mFILE[0m[38;2;73;72;62m                    visit FILE[0m
[38;2;249;0;90mPYTHONSTARTUP[0m[38;2;73;72;62m: file executed on interactive startup (no default)[0m
[38;2;73;72;62m  [0m[38;2;249;0;90mJAVA_OPTS[0m[38;2;73;72;62m           environment variable, if unset uses "-Dfile.encoding=UTF-8"[0m
[38;2;73;72;62m  [0m[38;2;249;0;90m'warn'[0m[38;2;73;72;62m         diagnose errors writing to any output[0m

[38;2;73;72;62m  [0m[3;38;2;0;137;179m.jvmopts[0m[38;2;73;72;62m            if this file exists in the current directory, its contents[0m
[38;2;73;72;62m  [0m[3;38;2;0;137;179m/etc/sbt/sbtopts[0m[38;2;73;72;62m    if this file exists, it is prepended to the runner args[0m
[3;38;2;0;137;179mpath/.to/file[0m
[3;38;2;0;137;179m~/.config/bat[0m
[3;38;2;0;137;179m~/.config/bat/[0m

[38;2;73;72;62m   [0m[38;2;103;156;0m+[0m[38;2;73;72;62m			Start at end of file[0m
[38;2;73;72;62m   [0m[38;2;103;156;0m+[0m[38;2;249;0;90m<lnum>[0m[38;2;73;72;62m		Start at line <lnum>[0m
[38;2;103;156;0m+[0m[38;2;249;0;90mLINE[0m[38;2;73;72;62m                   go to line LINE in next FILE[0m
[38;2;103;156;0m+[0m[38;2;249;0;90mLINE:COLUMN[0m[38;2;73;72;62m            go to line LINE, column COLUMN, in next FILE[0m


[38;2;73;72;62m## PRE-EXISTING FORMAT:[0m

[1m[38;2;73;72;62m[1mIt skips over bold text[0m[0m
[38;2;246;170;17mAnd continues normal operation[0m
[38;2;73;72;62m(as proven by the previous line being scoped as heading)[0m
[31m[38;2;73;72;62m[31mBut it aborts on color codes (this is red text)[0m[0m
[38;2;73;72;62mAnd stops operation for what is left[0m
[38;2;73;72;62m(otherwise the previous line would have been scoped as heading)[0m
