[38;2;203;75;22msynthetic[0m[38;2;101;123;131m - fake help message for testing theme support[0m

[38;2;101;123;131mMost of these lines come from actual help messages in tests/source/.[0m


[38;2;101;123;131m## HEADING PATTERNS:[0m

[1;38;2;42;161;152mSelection options[0m
[1;38;2;42;161;152mBasic Options:[0m
[1;38;2;42;161;152mUSAGE:[0m
[38;2;101;123;131m [0m[1;38;2;42;161;152mFinding manual pages:[0m
[1;38;2;42;161;152mAuto-correction:[0m
[1;38;2;42;161;152mGNU long options:[0m
[1;38;2;42;161;152mJIT options (experimental):[0m
[1;38;2;42;161;152mUsage:[0m[38;2;101;123;131m cp [OPTION]... [-T] SOURCE DEST[0m
[1;38;2;42;161;152musage:[0m[38;2;101;123;131m /home/user/.pyenv/versions/3.10.0/bin/python [option] ... [-c cmd | -m mod | file | -] [arg] ...[0m

[38;2;101;123;131mBut not if the line is longer than forty chars[0m
[38;2;101;123;131mnor if it begins with lowercase[0m
[38;2;101;123;131m   Nor after three spaces[0m
[38;2;101;123;131m	Nor after a tab[0m


[38;2;101;123;131m## OPTION PATTERNS:[0m

[38;2;101;123;131m    [0m[38;2;181;137;0m-A[0m[38;2;101;123;131m, [0m[38;2;181;137;0m--show-all[0m
[38;2;101;123;131m    [0m[38;2;181;137;0m-l[0m[38;2;101;123;131m, [0m[38;2;181;137;0m--language[0m[38;2;101;123;131m [0m[38;2;133;153;0m<language>[0m
[38;2;101;123;131m    [0m[38;2;181;137;0m-H[0m[38;2;101;123;131m, [0m[38;2;181;137;0m--highlight-line[0m[38;2;101;123;131m [0m[38;2;133;153;0m<N:M>[0m[38;2;133;153;0m...[0m
[38;2;101;123;131m        [0m[38;2;181;137;0m--file-name[0m[38;2;101;123;131m [0m[38;2;133;153;0m<name>[0m[38;2;133;153;0m...[0m
[38;2;101;123;131m      [0m[38;2;181;137;0m--backup[0m[38;2;101;123;131m[=[0m[38;2;133;153;0mCONTROL[0m[38;2;101;123;131m]       make a backup of each existing destination file[0m
[38;2;101;123;131m      [0m[38;2;181;137;0m--no-preserve[0m[38;2;101;123;131m=[0m[38;2;133;153;0mATTR_LIST[0m[38;2;101;123;131m  don't preserve the specified attributes[0m
[38;2;101;123;131m  [0m[38;2;181;137;0m-R[0m[38;2;101;123;131m, [0m[38;2;181;137;0m-r[0m[38;2;101;123;131m, [0m[38;2;181;137;0m--recursive[0m[38;2;101;123;131m          copy directories recursively[0m
[38;2;101;123;131m	[0m[38;2;181;137;0m-ilrsD[0m[38;2;101;123;131m or [0m[38;2;181;137;0m-c[0m[38;2;101;123;131m [0m[38;2;133;153;0mcommand[0m[38;2;101;123;131m or [0m[38;2;181;137;0m-O[0m[38;2;101;123;131m [0m[38;2;133;153;0mshopt_option[0m[38;2;101;123;131m		(invocation only)[0m
[38;2;101;123;131m     [0m[38;2;181;137;0m--alt-svc[0m[38;2;101;123;131m [0m[38;2;133;153;0m<file name>[0m[38;2;101;123;131m Enable alt-svc with this cache file[0m
[38;2;101;123;131m [0m[38;2;181;137;0m-b[0m[38;2;101;123;131m, [0m[38;2;181;137;0m--cookie[0m[38;2;101;123;131m [0m[38;2;133;153;0m<data|filename>[0m[38;2;101;123;131m Send cookies from string/file[0m
[38;2;101;123;131m     [0m[38;2;181;137;0m--tlsv1.0[0m[38;2;101;123;131m       Use TLSv1.0 or greater[0m
[38;2;101;123;131m      [0m[38;2;181;137;0m--label[0m[38;2;101;123;131m [0m[38;2;133;153;0mLABEL[0m[38;2;101;123;131m             use LABEL instead of file name and timestamp[0m
[38;2;101;123;131m      [0m[38;2;181;137;0m--from-file[0m[38;2;101;123;131m=[0m[38;2;133;153;0mFILE1[0m[38;2;101;123;131m           compare FILE1 to all operands;[0m
[38;2;101;123;131m  [0m[38;2;181;137;0m--help[0m[38;2;101;123;131m={[0m[38;2;133;153;0mcommon[0m[38;2;101;123;131m|[0m[38;2;133;153;0moptimizers[0m[38;2;101;123;131m|[0m[38;2;133;153;0mparams[0m[38;2;101;123;131m|[0m[38;2;133;153;0mtarget[0m[38;2;101;123;131m|[0m[38;2;133;153;0mwarnings[0m[38;2;101;123;131m|[0m[38;2;133;153;0m[^]{joined[0m[38;2;101;123;131m|[0m[38;2;133;153;0mseparate[0m[38;2;101;123;131m|[0m[38;2;133;153;0mundocumented[0m[38;2;101;123;131m}}[,...].[0m
[38;2;101;123;131m  [0m[38;2;181;137;0m-print-search-dirs[0m[38;2;101;123;131m       Display the directories in the compiler's search path.[0m
[38;2;101;123;131m  [0m[38;2;181;137;0m-print-file-name[0m[38;2;101;123;131m=[0m[38;2;133;153;0m<lib>[0m[38;2;101;123;131m   Display the full path to library <lib>.[0m
[38;2;101;123;131m  [0m[38;2;181;137;0m-Wa[0m[38;2;101;123;131m,[0m[38;2;133;153;0m<options>[0m[38;2;101;123;131m            Pass comma-separated <options> on to the assembler.[0m
[38;2;181;137;0m-C[0m[38;2;101;123;131m [0m[38;2;181;137;0m--no-color[0m[38;2;101;123;131m               Use a monochrome color scheme[0m
[38;2;101;123;131m  [0m[38;2;181;137;0m-r[0m[38;2;101;123;131m [0m[38;2;133;153;0mload-module[0m[38;2;101;123;131m    Same as `ruby -r'[0m
[38;2;101;123;131m  [0m[38;2;181;137;0m--sample-book-mode[0m[38;2;101;123;131m/[0m[38;2;181;137;0m--simple-prompt[0m
[38;2;101;123;131m    [0m[38;2;181;137;0m-D[0m[38;2;133;153;0m<name>[0m[38;2;101;123;131m=[0m[38;2;133;153;0m<value>[0m
[38;2;101;123;131m    [0m[38;2;181;137;0m-verbose[0m[38;2;101;123;131m:[[0m[38;2;133;153;0mclass[0m[38;2;101;123;131m|[0m[38;2;133;153;0mgc[0m[38;2;101;123;131m|[0m[38;2;133;153;0mjni[0m[38;2;101;123;131m][0m
[38;2;101;123;131m    [0m[38;2;181;137;0m-version[0m[38;2;101;123;131m:[0m[38;2;133;153;0m<value>[0m
[38;2;101;123;131m    [0m[38;2;181;137;0m-ea[0m[38;2;101;123;131m[[0m[38;2;133;153;0m:<packagename>...[0m[38;2;101;123;131m|[0m[38;2;133;153;0m:<classname>[0m[38;2;101;123;131m][0m
[38;2;101;123;131m    [0m[38;2;181;137;0m-agentlib[0m[38;2;101;123;131m:[0m[38;2;133;153;0m<libname>[0m[38;2;101;123;131m[=[0m[38;2;133;153;0m<options>[0m[38;2;101;123;131m][0m
[38;2;101;123;131m [0m[38;2;181;137;0m-A[0m[38;2;101;123;131m             [0m[38;2;181;137;0m--smarthome[0m[38;2;101;123;131m             Enable smart home key[0m
[38;2;181;137;0m-m[0m[38;2;101;123;131m [0m[38;2;133;153;0mmod[0m[38;2;101;123;131m : run library module as a script (terminates option list)[0m
[38;2;101;123;131m        [0m[38;2;181;137;0m--except[0m[38;2;101;123;131m [[0m[38;2;133;153;0mCOP1,COP2,...[0m[38;2;101;123;131m]     Exclude the given cop(s).[0m
[38;2;101;123;131m    [0m[38;2;181;137;0m-P[0m[38;2;101;123;131m, [0m[38;2;181;137;0m--[0m[38;2;101;123;131m[[0m[38;2;133;153;0mno-[0m[38;2;101;123;131m]parallel              Use available CPUs to execute inspection in[0m
[38;2;101;123;131m  [0m[38;2;181;137;0m-0[0m[38;2;101;123;131m[[0m[38;2;133;153;0moctal[0m[38;2;101;123;131m]       specify record separator (\0, if no argument)[0m
[38;2;101;123;131m  [0m[38;2;181;137;0m-Cdirectory[0m[38;2;101;123;131m     cd to directory before executing your script[0m
[38;2;101;123;131m  [0m[38;2;181;137;0m-e[0m[38;2;101;123;131m [0m[38;2;133;153;0m'command'[0m[38;2;101;123;131m    one line of script. Several -e's allowed. Omit [programfile][0m
[38;2;101;123;131m  [0m[38;2;181;137;0m-Eex[0m[38;2;101;123;131m[[0m[38;2;133;153;0m:in[0m[38;2;101;123;131m], [0m[38;2;181;137;0m--encoding[0m[38;2;101;123;131m=[0m[38;2;133;153;0mex[0m[38;2;101;123;131m[[0m[38;2;133;153;0m:in[0m[38;2;101;123;131m][0m
[38;2;101;123;131m  [0m[38;2;181;137;0m-rlibrary[0m[38;2;101;123;131m       require the library before executing your script[0m
[38;2;101;123;131m  [0m[38;2;181;137;0m-W[0m[38;2;101;123;131m[[0m[38;2;133;153;0mlevel=2[0m[38;2;101;123;131m|[0m[38;2;133;153;0m:category[0m[38;2;101;123;131m][0m
[38;2;101;123;131m  [0m[38;2;181;137;0m--jit-[0m[38;2;101;123;131m[[0m[38;2;133;153;0moption[0m[38;2;101;123;131m]  enable JIT with an option (experimental)[0m
[38;2;101;123;131m  [0m[38;2;181;137;0m--dump[0m[38;2;101;123;131m={[0m[38;2;133;153;0minsns[0m[38;2;101;123;131m|[0m[38;2;133;153;0mparsetree[0m[38;2;101;123;131m|[0m[38;2;133;153;0m...[0m[38;2;101;123;131m}[[0m[38;2;133;153;0m,...[0m[38;2;101;123;131m][0m
[38;2;101;123;131m  [0m[38;2;181;137;0m--external-encoding[0m[38;2;101;123;131m=[0m[38;2;133;153;0mencoding[0m[38;2;101;123;131m, [0m[38;2;181;137;0m--internal-encoding[0m[38;2;101;123;131m=[0m[38;2;133;153;0mencoding[0m
[38;2;101;123;131m  [0m[38;2;181;137;0m--backtrace-limit[0m[38;2;101;123;131m=[0m[38;2;133;153;0mnum[0m
[38;2;101;123;131m  [0m[38;2;181;137;0m-h[0m[38;2;101;123;131m | [0m[38;2;181;137;0m--help[0m[38;2;101;123;131m         print this message[0m
[38;2;101;123;131m  [0m[38;2;181;137;0m--color[0m[38;2;101;123;131m=[0m[38;2;133;153;0mauto[0m[38;2;101;123;131m|[0m[38;2;133;153;0malways[0m[38;2;101;123;131m|[0m[38;2;133;153;0mtrue[0m[38;2;101;123;131m|[0m[38;2;133;153;0mfalse[0m[38;2;101;123;131m|[0m[38;2;133;153;0mnever[0m
[38;2;101;123;131m  [0m[38;2;181;137;0m-w[0m[38;2;101;123;131m {[0m[38;2;133;153;0mshow[0m[38;2;101;123;131m,[0m[38;2;133;153;0mhide[0m[38;2;101;123;131m,[0m[38;2;133;153;0monly[0m[38;2;101;123;131m}, [0m[38;2;181;137;0m--window[0m[38;2;101;123;131m {[0m[38;2;133;153;0mshow[0m[38;2;101;123;131m,[0m[38;2;133;153;0mhide[0m[38;2;101;123;131m,[0m[38;2;133;153;0monly[0m[38;2;101;123;131m}[0m
[38;2;101;123;131m   [0m[38;2;181;137;0m-h[0m[38;2;101;123;131m  or  [0m[38;2;181;137;0m--help[0m[38;2;101;123;131m	Print Help (this message) and exit[0m
[38;2;101;123;131m  [0m[38;2;181;137;0m--display[0m[38;2;101;123;131m [0m[38;2;133;153;0mdisplayname[0m
[38;2;101;123;131m  [0m[38;2;181;137;0m-t[0m[38;2;101;123;131m [0m[38;2;133;153;0mms[0m[38;2;101;123;131m, [0m[38;2;181;137;0m--selectionTimeout[0m[38;2;101;123;131m [0m[38;2;133;153;0mms[0m
[38;2;101;123;131m      [--skip-active-storage], [--no-skip-active-storage]    # Skip Active Storage files[0m
[38;2;101;123;131m   [0m[38;2;203;75;22m--[0m[38;2;101;123;131m			Only file names after this[0m


[38;2;101;123;131m## ARGUMENT PATTERNS:[0m

[38;2;101;123;131m(collapse with other patterns?)[0m

[38;2;101;123;131m    [0m[38;2;133;153;0m<FILE>...[0m
[38;2;133;153;0m-[0m[38;2;101;123;131m      : program read from stdin (default; interactive mode if a tty)[0m
[38;2;133;153;0marg[0m[38;2;101;123;131m [0m[38;2;133;153;0m...[0m[38;2;101;123;131m: arguments passed to program in sys.argv[1:][0m


[38;2;101;123;131m## OTHER PATTERNS:[0m

[38;2;101;123;131m   [0m[38;2;203;75;22mcommit[0m[38;2;101;123;131m            Record changes to the repository[0m
[38;2;101;123;131m    [0m[38;2;203;75;22mcache[0m[38;2;101;123;131m    Modify the syntax-definition and theme cache[0m
[38;2;101;123;131m    [0m[38;2;203;75;22mbuild[0m[38;2;101;123;131m, [0m[38;2;203;75;22mb[0m[38;2;101;123;131m    Compile the current package[0m
[38;2;101;123;131m  [0m[38;2;203;75;22mlist[0m[38;2;101;123;131m - list packages based on package names[0m
[38;2;101;123;131m  [0m[38;2;203;75;22mfull-upgrade[0m[38;2;101;123;131m - upgrade the system by removing/installing/upgrading packages[0m
[38;2;101;123;131m  [0m[38;2;203;75;22mfdatasync[0m[38;2;101;123;131m  physically write output file data before finishing[0m
[38;2;101;123;131m  [0m[38;2;203;75;22mcompose*[0m[38;2;101;123;131m    Docker Compose (Docker Inc., v2.2.3)[0m
[38;2;101;123;131m  [0m[38;2;203;75;22mdid_you_mean[0m[38;2;101;123;131m    did_you_mean (default: enabled)[0m
[38;2;101;123;131m  [0m[38;2;203;75;22mfrozen-string-literal[0m
[38;2;203;75;22mfile[0m[38;2;101;123;131m   : program read from script file[0m

[38;2;133;153;0mFILE[0m[38;2;101;123;131m                    visit FILE[0m
[38;2;133;153;0mPYTHONSTARTUP[0m[38;2;101;123;131m: file executed on interactive startup (no default)[0m
[38;2;101;123;131m  [0m[38;2;133;153;0mJAVA_OPTS[0m[38;2;101;123;131m           environment variable, if unset uses "-Dfile.encoding=UTF-8"[0m
[38;2;101;123;131m  [0m[38;2;133;153;0m'warn'[0m[38;2;101;123;131m         diagnose errors writing to any output[0m

[38;2;101;123;131m  [0m[38;2;38;139;210m.jvmopts[0m[38;2;101;123;131m            if this file exists in the current directory, its contents[0m
[38;2;101;123;131m  [0m[38;2;38;139;210m/etc/sbt/sbtopts[0m[38;2;101;123;131m    if this file exists, it is prepended to the runner args[0m
[38;2;38;139;210mpath/.to/file[0m
[38;2;38;139;210m~/.config/bat[0m
[38;2;38;139;210m~/.config/bat/[0m

[38;2;101;123;131m   [0m[38;2;181;137;0m+[0m[38;2;101;123;131m			Start at end of file[0m
[38;2;101;123;131m   [0m[38;2;181;137;0m+[0m[38;2;133;153;0m<lnum>[0m[38;2;101;123;131m		Start at line <lnum>[0m
[38;2;181;137;0m+[0m[38;2;133;153;0mLINE[0m[38;2;101;123;131m                   go to line LINE in next FILE[0m
[38;2;181;137;0m+[0m[38;2;133;153;0mLINE:COLUMN[0m[38;2;101;123;131m            go to line LINE, column COLUMN, in next FILE[0m


[38;2;101;123;131m## PRE-EXISTING FORMAT:[0m

[1m[38;2;101;123;131m[1mIt skips over bold text[0m[0m
[1;38;2;42;161;152mAnd continues normal operation[0m
[38;2;101;123;131m(as proven by the previous line being scoped as heading)[0m
[31m[38;2;101;123;131m[31mBut it aborts on color codes (this is red text)[0m[0m
[38;2;101;123;131mAnd stops operation for what is left[0m
[38;2;101;123;131m(otherwise the previous line would have been scoped as heading)[0m
