{
  "LazyVim": { "branch": "main", "commit": "12818a6cb499456f4903c5d8e68af43753ebc869" },
  "SchemaStore.nvim": { "branch": "main", "commit": "ae75241aed204d829fe15595bbf05e6fbf3d49dd" },
  "bufferline.nvim": { "branch": "main", "commit": "0b2fd861eee7595015b6561dade52fb060be10c4" },
  "catppuccin": { "branch": "main", "commit": "4fd72a9ab64b393c2c22b168508fd244877fec96" },
  "cmp-buffer": { "branch": "main", "commit": "3022dbc9166796b644a841a02de8dd1cc1d311fa" },
  "cmp-git": { "branch": "main", "commit": "50d526dff0f6bc441b51fc269d9fdc99a50c76af" },
  "cmp-nvim-lsp": { "branch": "main", "commit": "39e2eda76828d88b773cc27a3f61d2ad782c922d" },
  "cmp-path": { "branch": "main", "commit": "91ff86cd9c29299a64f968ebb45846c485725f23" },
  "conform.nvim": { "branch": "master", "commit": "62eba813b7501b39612146cbf29cd07f1d4ac29c" },
  "dashboard-nvim": { "branch": "master", "commit": "fabf5feec96185817c732d47d363f34034212685" },
  "dressing.nvim": { "branch": "master", "commit": "c5775a888adbc50652cb370073fcfec963eca93e" },
  "flash.nvim": { "branch": "main", "commit": "34c7be146a91fec3555c33fe89c7d643f6ef5cf1" },
  "friendly-snippets": { "branch": "main", "commit": "00ebcaa159e817150bd83bfe2d51fa3b3377d5c4" },
  "gitsigns.nvim": { "branch": "main", "commit": "899e993850084ea33d001ec229d237bc020c19ae" },
  "grug-far.nvim": { "branch": "main", "commit": "e12bedbc0f216aebab8ca4b520760b96ba524022" },
  "indent-blankline.nvim": { "branch": "master", "commit": "db926997af951da38e5004ec7b9fbdc480b48f5d" },
  "lazy.nvim": { "branch": "main", "commit": "077102c5bfc578693f12377846d427f49bc50076" },
  "lazydev.nvim": { "branch": "main", "commit": "491452cf1ca6f029e90ad0d0368848fac717c6d2" },
  "lualine.nvim": { "branch": "master", "commit": "b431d228b7bbcdaea818bdc3e25b8cdbe861f056" },
  "luvit-meta": { "branch": "main", "commit": "ce76f6f6cdc9201523a5875a4471dcfe0186eb60" },
  "markdown-preview.nvim": { "branch": "master", "commit": "a923f5fc5ba36a3b17e289dc35dc17f66d0548ee" },
  "markdown.nvim": { "branch": "main", "commit": "8c67dbc267549d2e3b3d721c656b644660a77d3f" },
  "mason-lspconfig.nvim": { "branch": "main", "commit": "482350b050bd413931c2cdd4857443c3da7d57cb" },
  "mason.nvim": { "branch": "main", "commit": "e2f7f9044ec30067bc11800a9e266664b88cda22" },
  "mini.ai": { "branch": "main", "commit": "a9b992b13d22a8db8df6beac25afa59a10b5584d" },
  "mini.icons": { "branch": "main", "commit": "12e7b5d47bfc1b4c5ba4278fb49ec9100138df14" },
  "mini.pairs": { "branch": "main", "commit": "927d19cbdd0e752ab1c7eed87072e71d2cd6ff51" },
  "mini.surround": { "branch": "main", "commit": "d8913ed23be0a1a4585ae34414821cc343a46174" },
  "neo-tree.nvim": { "branch": "main", "commit": "206241e451c12f78969ff5ae53af45616ffc9b72" },
  "noice.nvim": { "branch": "main", "commit": "448bb9c524a7601035449210838e374a30153172" },
  "nui.nvim": { "branch": "main", "commit": "61574ce6e60c815b0a0c4b5655b8486ba58089a1" },
  "nvim-cmp": { "branch": "main", "commit": "ae644feb7b67bf1ce4260c231d1d4300b19c6f30" },
  "nvim-lint": { "branch": "master", "commit": "debabca63c0905b59ce596a55a8e33eafdf66342" },
  "nvim-lspconfig": { "branch": "master", "commit": "6bfd9210e312af6cfedba05d272e85618c93ab0d" },
  "nvim-notify": { "branch": "master", "commit": "d333b6f167900f6d9d42a59005d82919830626bf" },
  "nvim-snippets": { "branch": "main", "commit": "56b4052f71220144689caaa2e5b66222ba5661eb" },
  "nvim-treesitter": { "branch": "master", "commit": "585860a1865853d2c287c8ef534297da8115818e" },
  "nvim-treesitter-textobjects": { "branch": "master", "commit": "41e3abf6bfd9a9a681eb1f788bdeba91c9004b2b" },
  "nvim-ts-autotag": { "branch": "main", "commit": "e239a560f338be31337e7abc3ee42515daf23f5e" },
  "persistence.nvim": { "branch": "main", "commit": "f6aad7dde7fcf54148ccfc5f622c6d5badd0cc3d" },
  "plenary.nvim": { "branch": "master", "commit": "ec289423a1693aeae6cd0d503bac2856af74edaa" },
  "telescope-fzf-native.nvim": { "branch": "main", "commit": "cf48d4dfce44e0b9a2e19a008d6ec6ea6f01a83b" },
  "telescope.nvim": { "branch": "master", "commit": "5972437de807c3bc101565175da66a1aa4f8707a" },
  "todo-comments.nvim": { "branch": "main", "commit": "8f45f353dc3649cb9b44cecda96827ea88128584" },
  "tokyonight.nvim": { "branch": "main", "commit": "b0e7c7382a7e8f6456f2a95655983993ffda745e" },
  "trouble.nvim": { "branch": "main", "commit": "6efc446226679fda0547c0fd6a7892fd5f5b15d8" },
  "ts-comments.nvim": { "branch": "main", "commit": "98d7d4dec0af1312d38e288f800bbf6ff562b6ab" },
  "venv-selector.nvim": { "branch": "regexp", "commit": "c43dc6bf8c7e7cf124a991775ed3defe87112d3a" },
  "which-key.nvim": { "branch": "main", "commit": "6c1584eb76b55629702716995cca4ae2798a9cca" }
}
